Date (MMM-YY),"Ghana, Bolgatanga, Maize, Wholesale, (Ghana Cedi/Kg)","Ghana, Bolgatanga, Millet, Wholesale, (Ghana Cedi/Kg)","Ghana, Bolgatanga, Rice (imported), Wholesale, (Ghana Cedi/Kg)","Ghana, Bolgatanga, Rice (local), Wholesale, (Ghana Cedi/Kg)","Ghana, Bolgatanga, Rice (paddy), Wholesale, (Ghana Cedi/Kg)","Ghana, Bolgatanga, Sorghum, Wholesale, (Ghana Cedi/Kg)","Ghana, Bolgatanga, Yam, Wholesale, (Ghana Cedi/Kg)"
Jan-06,0.22,0.3, ,0.57, ,0.22,0.16
Feb-06,0.24,0.31, ,0.57, ,0.22,0.16
Mar-06,0.24,0.32, ,0.6, ,0.23,0.2
Apr-06,0.24,0.31, ,0.67, ,0.23, 
May-06,0.2,0.31, ,0.7, ,0.21,0.24
Jun-06,0.18,0.29, , , ,0.19,0.24
Jul-06,0.15,0.29, ,0.65, ,0.18,0.26
Aug-06,0.15,0.26, , , ,0.16, 
Sep-06,0.17,0.29, ,0.69, ,0.21, 
Oct-06,0.16,0.32, ,0.7, ,0.19,0.14
Nov-06,0.15,0.26,0.77,0.65, ,0.15,0.12
Dec-06,0.17,0.26,0.7,0.72, ,0.16,0.14
Jan-07,0.17,0.22,0.8,0.75, ,0.18,0.2
Feb-07,0.19,0.26,0.68,0.76, ,0.18,0.2
Mar-07,0.2,0.27,0.68, , ,0.19,0.2
Apr-07,0.19,0.24,0.65,1.29, ,0.16,0.38
May-07,0.2,0.2,0.66,0.9, ,0.15,0.36
Jun-07,0.18,0.22,0.61,0.63, ,0.16,0.36
Jul-07,0.21,0.27,0.58,0.66, ,0.23,0.5
Aug-07,0.24,0.31,0.6,0.5, ,0.25,0.28
Sep-07,0.27,0.32,0.65,0.55, ,0.31,0.29
Oct-07,0.28,0.34,0.73,0.72, ,0.28,0.16
Nov-07,0.37,0.54,0.68,0.6, ,0.4,0.29
Dec-07,0.28,0.44,0.73,0.74, ,0.31,0.36
Jan-08,0.31,0.43,0.89,0.71, ,0.38,0.5
Feb-08,0.33,0.47,0.88,0.7, ,0.4,0.5
Mar-08,0.38,0.49,0.88,0.83, ,0.4,0.52
Apr-08,0.39,0.51,0.89,0.9, ,0.38,0.52
May-08,0.5,0.6,0.98,0.94, ,0.45,0.52
Jun-08,0.54,0.66,1,1.01, ,0.52,0.52
Jul-08,0.6,0.66,1,1.07, ,0.54,0.52
Aug-08,0.56,0.71,1.15,1.15, ,0.52,0.6
Sep-08,0.39,0.71,1.2,1.29, ,0.54,0.46
Oct-08,0.42,0.69,1.2,1.38, ,0.47,0.37
Nov-08,0.43,0.67,1.23,1.17, ,0.39,0.34
Dec-08,0.44,0.55,1.2,1, ,0.39,0.43
Jan-09,0.45,0.52,1,1, ,0.41,0.46
Feb-09,0.51,0.58,1.37,1, ,0.45,0.43
Mar-09,0.52,0.6,1,1, ,0.46,0.49
Apr-09,0.47,0.58,1.05,1, ,0.46,0.62
May-09,0.51,0.6,1.06,1, ,0.47,0.59
Jun-09,0.66,0.71,1.06,1.1, ,0.54,0.58
Jul-09,0.65,0.73,1.04,1.05, ,0.54,0.56
Aug-09,0.59,0.77,1.04,1.1, ,0.51,0.63
Sep-09,0.45,0.57,1.05,1.07, ,0.48,0.76
Oct-09,0.32,0.55,1.04,0.98, ,0.49,0.71
Nov-09,0.38,0.55,1.04,0.98, ,0.51,0.54
Dec-09,0.4,0.58,1.04,1, ,0.5,0.63
Jan-10,0.4,0.58,1.07,1.18, ,0.52,0.67
Feb-10,0.4,0.57,1.13,1.1, ,0.57,0.63
Mar-10,0.41,0.58,1.25,1, ,0.45,0.65
Apr-10,0.42,0.55,1.2,1, ,0.47,0.6
May-10,0.42,0.55,1.16,1, ,0.46,0.6
Jun-10,0.42,0.55,1.2,1,0.36,0.47,0.63
Jul-10,0.38,0.66, ,1, ,0.46,0.7
Aug-10,0.36,0.55,1.2,1,0.45,0.47,0.72
Sep-10,0.36,0.55,1.2,1,0.54,0.46,0.41
Oct-10,0.32,0.55,1.2,1,0.5,0.46,0.32
Nov-10,0.36,0.56,1.21,1, ,0.47,0.39
Dec-10,0.37,0.56,1.23,1.08,0.38,0.47,0.43
Jan-11,0.4,0.59,1.27,1.3, ,0.47,0.43
Feb-11,0.42,0.56,1.3,1, ,0.47,0.4
Mar-11,0.42,0.59,1.3,1, ,0.51,0.4
Apr-11,0.42,0.6,1.3,1.12, ,0.49,0.44
May-11,0.57,0.69,1.39,1.3,0.44,0.49,0.48
Jun-11,0.57,0.78,1.25,1.37,0.57,0.49,0.48
Jul-11,0.54,0.79,1.7,1.18,0.52,0.52,0.49
Aug-11,0.6,0.77,1.73,1.34,0.54,0.63,0.59
Sep-11,0.57,0.77,1.44,1.3,0.53,0.63,0.44
Oct-11,0.54,0.77,1.36,1.4,0.53,0.58,0.39
Nov-11,0.54,0.77,1.42,1.45,0.53,0.49,0.36
Dec-11,0.68,0.84,1.5,1.4,0.57,0.63,0.37
Jan-12,0.67,0.82,1.48,1.4,0.65,0.63,0.38
Feb-12,0.66,0.82,1.5,1.6,0.68,0.64,0.4
Mar-12,0.67,0.86,1.5,1.6,0.65,0.63,0.38
Apr-12,0.7,1.03,3,1.65,0.67,0.67,0.4
May-12,0.74,1.15,1.7,1.65,0.69,0.67,0.4
Jun-12,0.76,1.15,2.38,1.7,0.72,0.68,0.47
Jul-12,0.7,1.15,2.8,1.8,0.72,0.65,1
Aug-12,0.69,1.31,2.9,1.8,0.72,0.63,0.72
Sep-12,0.7,1.43,3,1.81,0.69,0.63,0.5
Oct-12,0.52,1.65,2.52,1.86,0.75,0.56,0.72
Nov-12,0.53,1.65,2.55,1.83,0.81,0.63,0.84
Dec-12,0.53,1.4,2.27,1.71,0.92,0.72,0.7
Jan-13,0.59,1.14,2.52,1.81,0.8,0.84,0.68
Feb-13,0.62,1.09,2.77,1.84,0.9,0.81,0.79
Mar-13,0.6,1.09,2.85,1.83,0.78,0.84,0.81
Apr-13,0.57,1.04,2.82,1.8,0.71,0.84,0.95
May-13,0.55,1.07,2.8,1.8,0.71,0.81,1.02
Jun-13,0.5,1.14,2.9,1.81,0.74,0.81,0.84
Jul-13,0.55,1.18,2.85,1.83,0.81,0.83,1.08
Aug-13,0.52,1.11,3.03,1.8,0.74,0.88,0.78
Sep-13,0.52,1.13,3.02,1.8,0.68,0.85,0.62
Oct-13,0.55,1.1,3,1.8,0.66,0.81,0.56
Nov-13,0.55,1.1,3,1.8,0.66,0.81,0.56
Dec-13,0.57,1.07,2.9,1.8,0.72,0.81,0.73
Jan-14,0.58,1.15,3,1.8,0.74,0.89,0.72
Feb-14,0.63,0.99,3,1.8,0.79,0.88,0.75
Mar-14,0.64,1.1,2.93,1.87,0.72,0.9,0.8
Apr-14,0.67, ,2.8, , , ,0.76
May-14,0.76,1.11,2.58,2.12,0.76,0.9,0.81
Jun-14,0.81,1.21,3.21,2.7,0.9,0.9,1.05
Jul-14,0.81, ,3.21, , , ,1.05
Aug-14,0.8, ,3.32, , , ,1
Sep-14,1.15, ,3.83, , , ,0.76
Oct-14,1.2, ,4, , , ,0.6
Nov-14,1.1, ,4, , , ,0.66
Dec-14,1.2, ,4, , , ,0.6
Jan-15,1, ,4, , , ,1
Feb-15,1, ,5.6, , , ,1.4
Mar-15,1, ,5.5, , , ,1.56
Apr-15,1.07, ,5.8, , , ,1.8
May-15,1.26, ,6, , , ,2.24
Jun-15,1.24, ,6, , , ,1.47
Jul-15,1.28, ,6.2, , , , 
Aug-15, , , , , , , 
Sep-15, , , , , , , 
Oct-15,1.24, ,5.8, , , ,1.14
Nov-15,1.1, ,5.8, , , ,1.55
Dec-15,1.05, ,5.8, , , ,1.8
Jan-16,1.06, ,5.64, , , ,2.33
Feb-16,1.15, ,5.6, , , ,2.8
Mar-16,1.17, ,5.6, , , ,2.73
Apr-16,1.16, ,6, , , ,3
May-16,1.17, ,6, , , ,3.2
Jun-16,1.21, ,6, , , ,3.18
Jul-16,1.21, ,3.8, , , ,3.27
Aug-16,1.05, ,3.8, , , ,2.26
Sep-16,1, , , , , ,1.84
Oct-16, , , , , , ,1.89