DATE,PLCCPPUGA670NRUG
1/1/50,0.029783885
1/1/51,0.031982607
1/1/52,0.034934641
1/1/53,0.036990899
1/1/54,0.041680329
1/1/55,0.044493421
1/1/56,0.04243452
1/1/57,0.041100362
1/1/58,0.04173544
1/1/59,0.041678116
1/1/60,0.040031978
1/1/61,0.041928331
1/1/62,0.040598373
1/1/63,0.043646082
1/1/64,0.046410717
1/1/65,0.052251455
1/1/66,0.04973957
1/1/67,0.050075512
1/1/68,0.052731428
1/1/69,0.053974542
1/1/70,0.104540987
1/1/71,0.11813642
1/1/72,0.128246924
1/1/73,0.154713248
1/1/74,0.190921897
1/1/75,0.234835463
1/1/76,0.24272295
1/1/77,0.260433594
1/1/78,0.289175933
1/1/79,0.324033142
1/1/80,0.36411058
1/1/81,0.38863079
1/1/82,0.391945954
1/1/83,0.389546991
1/1/84,0.358873135
1/1/85,0.402836905
1/1/86,0.486444611
1/1/87,0.529422645
1/1/88,0.555854233
1/1/89,0.474464142
1/1/90,0.295709804
1/1/91,0.225443468
1/1/92,0.237144724
1/1/93,0.225688466
1/1/94,0.267370557
1/1/95,0.313455101
1/1/96,0.301076782
1/1/97,0.316659176
1/1/98,0.273893112
1/1/99,0.244876129
1/1/00,0.228279313
1/1/01,0.221281635
1/1/02,0.219595817
1/1/03,0.225622677
1/1/04,0.253821458
1/1/05,0.276517446
1/1/06,0.288040335
1/1/07,0.328312299
1/1/08,0.381925905
1/1/09,0.363025291
1/1/10,0.351190596
1/1/11,0.356664276
1/1/12,0.38454112
1/1/13,0.384393131
1/1/14,0.393134886