Monthly Price Data Analysis Report,,,,,,,,,,,,,,
Country,Admin 1,Admin 2,Admin 3,Admin 4,Admin 5,Market,Commodity,Month,Year,Price Type,Price,Unit,Currency,Datasorce
Ghana,Northern,Tamale,,,,Tamale,Cassava,1,2014,Wholesale,49.00,91 KG,GHS,MOFA
Ghana,Northern,Tamale,,,,Tamale,Cassava,2,2014,Wholesale,58.75,91 KG,GHS,MOFA
Ghana,Northern,Tamale,,,,Tamale,Cassava,3,2014,Wholesale,68.00,91 KG,GHS,MOFA
Ghana,Northern,Tamale,,,,Tamale,Cassava,4,2014,Wholesale,62.50,91 KG,GHS,MOFA
Ghana,Northern,Tamale,,,,Tamale,Cassava,5,2014,Wholesale,76.00,91 KG,GHS,MOFA
Ghana,Northern,Tamale,,,,Tamale,Cassava,6,2014,Wholesale,66.25,91 KG,GHS,MOFA
Ghana,Northern,Tamale,,,,Tamale,Cassava,7,2014,Wholesale,66.25,91 KG,GHS,MOFA
Ghana,Northern,Tamale,,,,Tamale,Cassava,8,2014,Wholesale,70.00,91 KG,GHS,MOFA
Ghana,Northern,Tamale,,,,Tamale,Cassava,9,2014,Wholesale,70.00,91 KG,GHS,MOFA
Ghana,Northern,Tamale,,,,Tamale,Cassava,10,2014,Wholesale,62.50,91 KG,GHS,MOFA
Ghana,Northern,Tamale,,,,Tamale,Cassava,11,2014,Wholesale,60.00,91 KG,GHS,MOFA
Ghana,Northern,Tamale,,,,Tamale,Cassava,12,2014,Wholesale,62.50,91 KG,GHS,MOFA
Ghana,Northern,Tamale,,,,Tamale,Cassava,1,2013,Wholesale,58.00,91 KG,GHS,MOFA
Ghana,Northern,Tamale,,,,Tamale,Cassava,2,2013,Wholesale,57.25,91 KG,GHS,MOFA
Ghana,Northern,Tamale,,,,Tamale,Cassava,3,2013,Wholesale,57.25,91 KG,GHS,MOFA
Ghana,Northern,Tamale,,,,Tamale,Cassava,4,2013,Wholesale,55.00,91 KG,GHS,MOFA
Ghana,Northern,Tamale,,,,Tamale,Cassava,5,2013,Wholesale,61.00,91 KG,GHS,MOFA
Ghana,Northern,Tamale,,,,Tamale,Cassava,6,2013,Wholesale,58.00,91 KG,GHS,MOFA
Ghana,Northern,Tamale,,,,Tamale,Cassava,7,2013,Wholesale,70.00,91 KG,GHS,MOFA
Ghana,Northern,Tamale,,,,Tamale,Cassava,8,2013,Wholesale,70.00,91 KG,GHS,MOFA
Ghana,Northern,Tamale,,,,Tamale,Cassava,9,2013,Wholesale,66.25,91 KG,GHS,MOFA
Ghana,Northern,Tamale,,,,Tamale,Cassava,10,2013,Wholesale,70.00,91 KG,GHS,MOFA
Ghana,Northern,Tamale,,,,Tamale,Cassava,11,2013,Wholesale,50.00,91 KG,GHS,MOFA
Ghana,Northern,Tamale,,,,Tamale,Cassava,12,2013,Wholesale,55.00,91 KG,GHS,MOFA
Ghana,Northern,Tamale,,,,Tamale,Cassava,1,2012,Wholesale,60.00,91 KG,GHS,MOFA
Ghana,Northern,Tamale,,,,Tamale,Cassava,2,2012,Wholesale,60.00,91 KG,GHS,MOFA
Ghana,Northern,Tamale,,,,Tamale,Cassava,3,2012,Wholesale,52.00,91 KG,GHS,MOFA
Ghana,Northern,Tamale,,,,Tamale,Cassava,4,2012,Wholesale,56.25,91 KG,GHS,MOFA
Ghana,Northern,Tamale,,,,Tamale,Cassava,5,2012,Wholesale,60.00,91 KG,GHS,MOFA
Ghana,Northern,Tamale,,,,Tamale,Cassava,6,2012,Wholesale,60.00,91 KG,GHS,MOFA
Ghana,Northern,Tamale,,,,Tamale,Cassava,7,2012,Wholesale,57.50,91 KG,GHS,MOFA
Ghana,Northern,Tamale,,,,Tamale,Cassava,8,2012,Wholesale,52.50,91 KG,GHS,MOFA
Ghana,Northern,Tamale,,,,Tamale,Cassava,9,2012,Wholesale,60.00,91 KG,GHS,MOFA
Ghana,Northern,Tamale,,,,Tamale,Cassava,10,2012,Wholesale,60.00,91 KG,GHS,MOFA
Ghana,Northern,Tamale,,,,Tamale,Cassava,11,2012,Wholesale,60.00,91 KG,GHS,MOFA
Ghana,Northern,Tamale,,,,Tamale,Cassava,12,2012,Wholesale,58.00,91 KG,GHS,MOFA
Ghana,Northern,Tamale,,,,Tamale,Cassava,1,2011,Wholesale,38.67,91 KG,GHS,MOFA
Ghana,Northern,Tamale,,,,Tamale,Cassava,2,2011,Wholesale,56.00,91 KG,GHS,MOFA
Ghana,Northern,Tamale,,,,Tamale,Cassava,3,2011,Wholesale,70.00,91 KG,GHS,MOFA
Ghana,Northern,Tamale,,,,Tamale,Cassava,4,2011,Wholesale,70.00,91 KG,GHS,MOFA
Ghana,Northern,Tamale,,,,Tamale,Cassava,5,2011,Wholesale,70.00,91 KG,GHS,MOFA
Ghana,Northern,Tamale,,,,Tamale,Cassava,6,2011,Wholesale,60.00,91 KG,GHS,MOFA
Ghana,Northern,Tamale,,,,Tamale,Cassava,7,2011,Wholesale,60.00,91 KG,GHS,MOFA
Ghana,Northern,Tamale,,,,Tamale,Cassava,8,2011,Wholesale,56.67,91 KG,GHS,MOFA
Ghana,Northern,Tamale,,,,Tamale,Cassava,9,2011,Wholesale,57.50,91 KG,GHS,MOFA
Ghana,Northern,Tamale,,,,Tamale,Cassava,10,2011,Wholesale,58.75,91 KG,GHS,MOFA
Ghana,Northern,Tamale,,,,Tamale,Cassava,11,2011,Wholesale,50.00,91 KG,GHS,MOFA
Ghana,Northern,Tamale,,,,Tamale,Cassava,12,2011,Wholesale,50.00,91 KG,GHS,MOFA
Ghana,Northern,Tamale,,,,Tamale,Cassava,1,2010,Wholesale,32.80,91 KG,GHS,MOFA
Ghana,Northern,Tamale,,,,Tamale,Cassava,2,2010,Wholesale,32.50,91 KG,GHS,MOFA
Ghana,Northern,Tamale,,,,Tamale,Cassava,3,2010,Wholesale,27.75,91 KG,GHS,MOFA
Ghana,Northern,Tamale,,,,Tamale,Cassava,4,2010,Wholesale,29.50,91 KG,GHS,MOFA
Ghana,Northern,Tamale,,,,Tamale,Cassava,5,2010,Wholesale,42.00,91 KG,GHS,MOFA
Ghana,Northern,Tamale,,,,Tamale,Cassava,6,2010,Wholesale,50.00,91 KG,GHS,MOFA
Ghana,Northern,Tamale,,,,Tamale,Cassava,7,2010,Wholesale,51.20,91 KG,GHS,MOFA
Ghana,Northern,Tamale,,,,Tamale,Cassava,8,2010,Wholesale,28.25,91 KG,GHS,MOFA
Ghana,Northern,Tamale,,,,Tamale,Cassava,9,2010,Wholesale,52.50,91 KG,GHS,MOFA
Ghana,Northern,Tamale,,,,Tamale,Cassava,10,2010,Wholesale,46.25,91 KG,GHS,MOFA
Ghana,Northern,Tamale,,,,Tamale,Cassava,11,2010,Wholesale,56.25,91 KG,GHS,MOFA
Ghana,Northern,Tamale,,,,Tamale,Cassava,12,2010,Wholesale,,91 KG,GHS,MOFA
Ghana,Northern,Tamale,,,,Tamale,Cassava,1,2009,Wholesale,13.80,91 KG,GHS,MOFA
Ghana,Northern,Tamale,,,,Tamale,Cassava,2,2009,Wholesale,14.00,91 KG,GHS,MOFA
Ghana,Northern,Tamale,,,,Tamale,Cassava,3,2009,Wholesale,14.00,91 KG,GHS,MOFA
Ghana,Northern,Tamale,,,,Tamale,Cassava,4,2009,Wholesale,13.00,91 KG,GHS,MOFA
Ghana,Northern,Tamale,,,,Tamale,Cassava,5,2009,Wholesale,14.80,91 KG,GHS,MOFA
Ghana,Northern,Tamale,,,,Tamale,Cassava,6,2009,Wholesale,14.50,91 KG,GHS,MOFA
Ghana,Northern,Tamale,,,,Tamale,Cassava,7,2009,Wholesale,14.75,91 KG,GHS,MOFA
Ghana,Northern,Tamale,,,,Tamale,Cassava,8,2009,Wholesale,15.80,91 KG,GHS,MOFA
Ghana,Northern,Tamale,,,,Tamale,Cassava,9,2009,Wholesale,15.00,91 KG,GHS,MOFA
Ghana,Northern,Tamale,,,,Tamale,Cassava,10,2009,Wholesale,28.00,91 KG,GHS,MOFA
Ghana,Northern,Tamale,,,,Tamale,Cassava,11,2009,Wholesale,32.50,91 KG,GHS,MOFA
Ghana,Northern,Tamale,,,,Tamale,Cassava,12,2009,Wholesale,32.50,91 KG,GHS,MOFA
Ghana,Northern,Tamale,,,,Tamale,Cassava,1,2008,Wholesale,16.00,91 KG,GHS,MOFA
Ghana,Northern,Tamale,,,,Tamale,Cassava,2,2008,Wholesale,15.00,91 KG,GHS,MOFA
Ghana,Northern,Tamale,,,,Tamale,Cassava,3,2008,Wholesale,14.33,91 KG,GHS,MOFA
Ghana,Northern,Tamale,,,,Tamale,Cassava,4,2008,Wholesale,14.50,91 KG,GHS,MOFA
Ghana,Northern,Tamale,,,,Tamale,Cassava,5,2008,Wholesale,15.75,91 KG,GHS,MOFA
Ghana,Northern,Tamale,,,,Tamale,Cassava,6,2008,Wholesale,14.75,91 KG,GHS,MOFA
Ghana,Northern,Tamale,,,,Tamale,Cassava,7,2008,Wholesale,14.00,91 KG,GHS,MOFA
Ghana,Northern,Tamale,,,,Tamale,Cassava,8,2008,Wholesale,14.25,91 KG,GHS,MOFA
Ghana,Northern,Tamale,,,,Tamale,Cassava,9,2008,Wholesale,14.00,91 KG,GHS,MOFA
Ghana,Northern,Tamale,,,,Tamale,Cassava,10,2008,Wholesale,15.00,91 KG,GHS,MOFA
Ghana,Northern,Tamale,,,,Tamale,Cassava,11,2008,Wholesale,14.40,91 KG,GHS,MOFA
Ghana,Northern,Tamale,,,,Tamale,Cassava,12,2008,Wholesale,14.00,91 KG,GHS,MOFA
Ghana,Northern,Tamale,,,,Tamale,Maize,1,2014,Wholesale,66.00,100 KG,GHS,MOFA
Ghana,Northern,Tamale,,,,Tamale,Maize,2,2014,Wholesale,60.00,100 KG,GHS,MOFA
Ghana,Northern,Tamale,,,,Tamale,Maize,3,2014,Wholesale,60.00,100 KG,GHS,MOFA
Ghana,Northern,Tamale,,,,Tamale,Maize,4,2014,Wholesale,63.00,100 KG,GHS,MOFA
Ghana,Northern,Tamale,,,,Tamale,Maize,5,2014,Wholesale,76.80,100 KG,GHS,MOFA
Ghana,Northern,Tamale,,,,Tamale,Maize,6,2014,Wholesale,80.00,100 KG,GHS,MOFA
Ghana,Northern,Tamale,,,,Tamale,Maize,7,2014,Wholesale,80.00,100 KG,GHS,MOFA
Ghana,Northern,Tamale,,,,Tamale,Maize,8,2014,Wholesale,105.00,100 KG,GHS,MOFA
Ghana,Northern,Tamale,,,,Tamale,Maize,9,2014,Wholesale,100.00,100 KG,GHS,MOFA
Ghana,Northern,Tamale,,,,Tamale,Maize,10,2014,Wholesale,100.00,100 KG,GHS,MOFA
Ghana,Northern,Tamale,,,,Tamale,Maize,11,2014,Wholesale,100.00,100 KG,GHS,MOFA
Ghana,Northern,Tamale,,,,Tamale,Maize,12,2014,Wholesale,100.00,100 KG,GHS,MOFA
Ghana,Northern,Tamale,,,,Tamale,Maize,1,2013,Wholesale,54.00,100 KG,GHS,MOFA
Ghana,Northern,Tamale,,,,Tamale,Maize,2,2013,Wholesale,56.50,100 KG,GHS,MOFA
Ghana,Northern,Tamale,,,,Tamale,Maize,3,2013,Wholesale,52.50,100 KG,GHS,MOFA
Ghana,Northern,Tamale,,,,Tamale,Maize,4,2013,Wholesale,48.00,100 KG,GHS,MOFA
Ghana,Northern,Tamale,,,,Tamale,Maize,5,2013,Wholesale,46.50,100 KG,GHS,MOFA
Ghana,Northern,Tamale,,,,Tamale,Maize,6,2013,Wholesale,45.60,100 KG,GHS,MOFA
Ghana,Northern,Tamale,,,,Tamale,Maize,7,2013,Wholesale,48.00,100 KG,GHS,MOFA
Ghana,Northern,Tamale,,,,Tamale,Maize,8,2013,Wholesale,48.00,100 KG,GHS,MOFA
Ghana,Northern,Tamale,,,,Tamale,Maize,9,2013,Wholesale,48.00,100 KG,GHS,MOFA
Ghana,Northern,Tamale,,,,Tamale,Maize,10,2013,Wholesale,48.00,100 KG,GHS,MOFA
Ghana,Northern,Tamale,,,,Tamale,Maize,11,2013,Wholesale,51.00,100 KG,GHS,MOFA
Ghana,Northern,Tamale,,,,Tamale,Maize,12,2013,Wholesale,51.00,100 KG,GHS,MOFA
Ghana,Northern,Tamale,,,,Tamale,Maize,1,2012,Wholesale,63.00,100 KG,GHS,MOFA
Ghana,Northern,Tamale,,,,Tamale,Maize,2,2012,Wholesale,61.00,100 KG,GHS,MOFA
Ghana,Northern,Tamale,,,,Tamale,Maize,3,2012,Wholesale,63.20,100 KG,GHS,MOFA
Ghana,Northern,Tamale,,,,Tamale,Maize,4,2012,Wholesale,66.00,100 KG,GHS,MOFA
Ghana,Northern,Tamale,,,,Tamale,Maize,5,2012,Wholesale,80.00,100 KG,GHS,MOFA
Ghana,Northern,Tamale,,,,Tamale,Maize,6,2012,Wholesale,76.80,100 KG,GHS,MOFA
Ghana,Northern,Tamale,,,,Tamale,Maize,7,2012,Wholesale,72.00,100 KG,GHS,MOFA
Ghana,Northern,Tamale,,,,Tamale,Maize,8,2012,Wholesale,70.00,100 KG,GHS,MOFA
Ghana,Northern,Tamale,,,,Tamale,Maize,9,2012,Wholesale,53.00,100 KG,GHS,MOFA
Ghana,Northern,Tamale,,,,Tamale,Maize,10,2012,Wholesale,48.00,100 KG,GHS,MOFA
Ghana,Northern,Tamale,,,,Tamale,Maize,11,2012,Wholesale,48.00,100 KG,GHS,MOFA
Ghana,Northern,Tamale,,,,Tamale,Maize,12,2012,Wholesale,48.80,100 KG,GHS,MOFA
Ghana,Northern,Tamale,,,,Tamale,Maize,1,2011,Wholesale,37.20,100 KG,GHS,MOFA
Ghana,Northern,Tamale,,,,Tamale,Maize,2,2011,Wholesale,30.40,100 KG,GHS,MOFA
Ghana,Northern,Tamale,,,,Tamale,Maize,3,2011,Wholesale,38.00,100 KG,GHS,MOFA
Ghana,Northern,Tamale,,,,Tamale,Maize,4,2011,Wholesale,38.00,100 KG,GHS,MOFA
Ghana,Northern,Tamale,,,,Tamale,Maize,5,2011,Wholesale,38.00,100 KG,GHS,MOFA
Ghana,Northern,Tamale,,,,Tamale,Maize,6,2011,Wholesale,55.00,100 KG,GHS,MOFA
Ghana,Northern,Tamale,,,,Tamale,Maize,7,2011,Wholesale,50.00,100 KG,GHS,MOFA
Ghana,Northern,Tamale,,,,Tamale,Maize,8,2011,Wholesale,62.67,100 KG,GHS,MOFA
Ghana,Northern,Tamale,,,,Tamale,Maize,9,2011,Wholesale,48.25,100 KG,GHS,MOFA
Ghana,Northern,Tamale,,,,Tamale,Maize,10,2011,Wholesale,47.00,100 KG,GHS,MOFA
Ghana,Northern,Tamale,,,,Tamale,Maize,11,2011,Wholesale,48.00,100 KG,GHS,MOFA
Ghana,Northern,Tamale,,,,Tamale,Maize,12,2011,Wholesale,57.60,100 KG,GHS,MOFA
Ghana,Northern,Tamale,,,,Tamale,Maize,1,2010,Wholesale,36.00,100 KG,GHS,MOFA
Ghana,Northern,Tamale,,,,Tamale,Maize,2,2010,Wholesale,35.75,100 KG,GHS,MOFA
Ghana,Northern,Tamale,,,,Tamale,Maize,3,2010,Wholesale,36.00,100 KG,GHS,MOFA
Ghana,Northern,Tamale,,,,Tamale,Maize,4,2010,Wholesale,36.25,100 KG,GHS,MOFA
Ghana,Northern,Tamale,,,,Tamale,Maize,5,2010,Wholesale,35.60,100 KG,GHS,MOFA
Ghana,Northern,Tamale,,,,Tamale,Maize,6,2010,Wholesale,37.25,100 KG,GHS,MOFA
Ghana,Northern,Tamale,,,,Tamale,Maize,7,2010,Wholesale,36.00,100 KG,GHS,MOFA
Ghana,Northern,Tamale,,,,Tamale,Maize,8,2010,Wholesale,45.75,100 KG,GHS,MOFA
Ghana,Northern,Tamale,,,,Tamale,Maize,9,2010,Wholesale,33.75,100 KG,GHS,MOFA
Ghana,Northern,Tamale,,,,Tamale,Maize,10,2010,Wholesale,32.00,100 KG,GHS,MOFA
Ghana,Northern,Tamale,,,,Tamale,Maize,11,2010,Wholesale,36.00,100 KG,GHS,MOFA
Ghana,Northern,Tamale,,,,Tamale,Maize,12,2010,Wholesale,,100 KG,GHS,MOFA
Ghana,Northern,Tamale,,,,Tamale,Maize,1,2009,Wholesale,40.40,100 KG,GHS,MOFA
Ghana,Northern,Tamale,,,,Tamale,Maize,2,2009,Wholesale,44.50,100 KG,GHS,MOFA
Ghana,Northern,Tamale,,,,Tamale,Maize,3,2009,Wholesale,42.50,100 KG,GHS,MOFA
Ghana,Northern,Tamale,,,,Tamale,Maize,4,2009,Wholesale,44.00,100 KG,GHS,MOFA
Ghana,Northern,Tamale,,,,Tamale,Maize,5,2009,Wholesale,53.60,100 KG,GHS,MOFA
Ghana,Northern,Tamale,,,,Tamale,Maize,6,2009,Wholesale,54.50,100 KG,GHS,MOFA
Ghana,Northern,Tamale,,,,Tamale,Maize,7,2009,Wholesale,49.50,100 KG,GHS,MOFA
Ghana,Northern,Tamale,,,,Tamale,Maize,8,2009,Wholesale,43.20,100 KG,GHS,MOFA
Ghana,Northern,Tamale,,,,Tamale,Maize,9,2009,Wholesale,33.25,100 KG,GHS,MOFA
Ghana,Northern,Tamale,,,,Tamale,Maize,10,2009,Wholesale,34.00,100 KG,GHS,MOFA
Ghana,Northern,Tamale,,,,Tamale,Maize,11,2009,Wholesale,34.75,100 KG,GHS,MOFA
Ghana,Northern,Tamale,,,,Tamale,Maize,12,2009,Wholesale,34.75,100 KG,GHS,MOFA
Ghana,Northern,Tamale,,,,Tamale,Maize,1,2008,Wholesale,28.00,100 KG,GHS,MOFA
Ghana,Northern,Tamale,,,,Tamale,Maize,2,2008,Wholesale,27.00,100 KG,GHS,MOFA
Ghana,Northern,Tamale,,,,Tamale,Maize,3,2008,Wholesale,36.00,100 KG,GHS,MOFA
Ghana,Northern,Tamale,,,,Tamale,Maize,4,2008,Wholesale,36.00,100 KG,GHS,MOFA
Ghana,Northern,Tamale,,,,Tamale,Maize,5,2008,Wholesale,43.50,100 KG,GHS,MOFA
Ghana,Northern,Tamale,,,,Tamale,Maize,6,2008,Wholesale,47.75,100 KG,GHS,MOFA
Ghana,Northern,Tamale,,,,Tamale,Maize,7,2008,Wholesale,60.00,100 KG,GHS,MOFA
Ghana,Northern,Tamale,,,,Tamale,Maize,8,2008,Wholesale,58.25,100 KG,GHS,MOFA
Ghana,Northern,Tamale,,,,Tamale,Maize,9,2008,Wholesale,37.00,100 KG,GHS,MOFA
Ghana,Northern,Tamale,,,,Tamale,Maize,10,2008,Wholesale,36.50,100 KG,GHS,MOFA
Ghana,Northern,Tamale,,,,Tamale,Maize,11,2008,Wholesale,34.80,100 KG,GHS,MOFA
Ghana,Northern,Tamale,,,,Tamale,Maize,12,2008,Wholesale,34.25,100 KG,GHS,MOFA
Ghana,Northern,Tamale,,,,Tamale,Plantains (apentu),1,2014,Wholesale,13.40,Bunch,GHS,MOFA
Ghana,Northern,Tamale,,,,Tamale,Plantains (apentu),2,2014,Wholesale,15.00,Bunch,GHS,MOFA
Ghana,Northern,Tamale,,,,Tamale,Plantains (apentu),3,2014,Wholesale,13.00,Bunch,GHS,MOFA
Ghana,Northern,Tamale,,,,Tamale,Plantains (apentu),4,2014,Wholesale,10.00,Bunch,GHS,MOFA
Ghana,Northern,Tamale,,,,Tamale,Plantains (apentu),5,2014,Wholesale,14.00,Bunch,GHS,MOFA
Ghana,Northern,Tamale,,,,Tamale,Plantains (apentu),6,2014,Wholesale,17.50,Bunch,GHS,MOFA
Ghana,Northern,Tamale,,,,Tamale,Plantains (apentu),7,2014,Wholesale,17.50,Bunch,GHS,MOFA
Ghana,Northern,Tamale,,,,Tamale,Plantains (apentu),8,2014,Wholesale,15.00,Bunch,GHS,MOFA
Ghana,Northern,Tamale,,,,Tamale,Plantains (apentu),9,2014,Wholesale,15.00,Bunch,GHS,MOFA
Ghana,Northern,Tamale,,,,Tamale,Plantains (apentu),10,2014,Wholesale,15.00,Bunch,GHS,MOFA
Ghana,Northern,Tamale,,,,Tamale,Plantains (apentu),11,2014,Wholesale,17.50,Bunch,GHS,MOFA
Ghana,Northern,Tamale,,,,Tamale,Plantains (apentu),12,2014,Wholesale,15.00,Bunch,GHS,MOFA
Ghana,Northern,Tamale,,,,Tamale,Plantains (apentu),1,2013,Wholesale,10.00,Bunch,GHS,MOFA
Ghana,Northern,Tamale,,,,Tamale,Plantains (apentu),2,2013,Wholesale,10.00,Bunch,GHS,MOFA
Ghana,Northern,Tamale,,,,Tamale,Plantains (apentu),3,2013,Wholesale,11.25,Bunch,GHS,MOFA
Ghana,Northern,Tamale,,,,Tamale,Plantains (apentu),4,2013,Wholesale,15.00,Bunch,GHS,MOFA
Ghana,Northern,Tamale,,,,Tamale,Plantains (apentu),5,2013,Wholesale,15.00,Bunch,GHS,MOFA
Ghana,Northern,Tamale,,,,Tamale,Plantains (apentu),6,2013,Wholesale,15.00,Bunch,GHS,MOFA
Ghana,Northern,Tamale,,,,Tamale,Plantains (apentu),7,2013,Wholesale,16.00,Bunch,GHS,MOFA
Ghana,Northern,Tamale,,,,Tamale,Plantains (apentu),8,2013,Wholesale,16.00,Bunch,GHS,MOFA
Ghana,Northern,Tamale,,,,Tamale,Plantains (apentu),9,2013,Wholesale,16.75,Bunch,GHS,MOFA
Ghana,Northern,Tamale,,,,Tamale,Plantains (apentu),10,2013,Wholesale,20.00,Bunch,GHS,MOFA
Ghana,Northern,Tamale,,,,Tamale,Plantains (apentu),11,2013,Wholesale,15.00,Bunch,GHS,MOFA
Ghana,Northern,Tamale,,,,Tamale,Plantains (apentu),12,2013,Wholesale,12.50,Bunch,GHS,MOFA
Ghana,Northern,Tamale,,,,Tamale,Plantains (apentu),1,2012,Wholesale,8.25,Bunch,GHS,MOFA
Ghana,Northern,Tamale,,,,Tamale,Plantains (apentu),2,2012,Wholesale,7.75,Bunch,GHS,MOFA
Ghana,Northern,Tamale,,,,Tamale,Plantains (apentu),3,2012,Wholesale,8.00,Bunch,GHS,MOFA
Ghana,Northern,Tamale,,,,Tamale,Plantains (apentu),4,2012,Wholesale,11.00,Bunch,GHS,MOFA
Ghana,Northern,Tamale,,,,Tamale,Plantains (apentu),5,2012,Wholesale,11.50,Bunch,GHS,MOFA
Ghana,Northern,Tamale,,,,Tamale,Plantains (apentu),6,2012,Wholesale,10.80,Bunch,GHS,MOFA
Ghana,Northern,Tamale,,,,Tamale,Plantains (apentu),7,2012,Wholesale,57.50,Bunch,GHS,MOFA
Ghana,Northern,Tamale,,,,Tamale,Plantains (apentu),8,2012,Wholesale,12.50,Bunch,GHS,MOFA
Ghana,Northern,Tamale,,,,Tamale,Plantains (apentu),9,2012,Wholesale,13.75,Bunch,GHS,MOFA
Ghana,Northern,Tamale,,,,Tamale,Plantains (apentu),10,2012,Wholesale,15.25,Bunch,GHS,MOFA
Ghana,Northern,Tamale,,,,Tamale,Plantains (apentu),11,2012,Wholesale,11.25,Bunch,GHS,MOFA
Ghana,Northern,Tamale,,,,Tamale,Plantains (apentu),12,2012,Wholesale,10.00,Bunch,GHS,MOFA
Ghana,Northern,Tamale,,,,Tamale,Plantains (apentu),1,2011,Wholesale,5.83,Bunch,GHS,MOFA
Ghana,Northern,Tamale,,,,Tamale,Plantains (apentu),2,2011,Wholesale,5.60,Bunch,GHS,MOFA
Ghana,Northern,Tamale,,,,Tamale,Plantains (apentu),3,2011,Wholesale,7.00,Bunch,GHS,MOFA
Ghana,Northern,Tamale,,,,Tamale,Plantains (apentu),4,2011,Wholesale,7.00,Bunch,GHS,MOFA
Ghana,Northern,Tamale,,,,Tamale,Plantains (apentu),5,2011,Wholesale,7.00,Bunch,GHS,MOFA
Ghana,Northern,Tamale,,,,Tamale,Plantains (apentu),6,2011,Wholesale,9.25,Bunch,GHS,MOFA
Ghana,Northern,Tamale,,,,Tamale,Plantains (apentu),7,2011,Wholesale,9.00,Bunch,GHS,MOFA
Ghana,Northern,Tamale,,,,Tamale,Plantains (apentu),8,2011,Wholesale,10.00,Bunch,GHS,MOFA
Ghana,Northern,Tamale,,,,Tamale,Plantains (apentu),9,2011,Wholesale,8.50,Bunch,GHS,MOFA
Ghana,Northern,Tamale,,,,Tamale,Plantains (apentu),10,2011,Wholesale,9.00,Bunch,GHS,MOFA
Ghana,Northern,Tamale,,,,Tamale,Plantains (apentu),11,2011,Wholesale,7.00,Bunch,GHS,MOFA
Ghana,Northern,Tamale,,,,Tamale,Plantains (apentu),12,2011,Wholesale,7.60,Bunch,GHS,MOFA
Ghana,Northern,Tamale,,,,Tamale,Plantains (apentu),1,2010,Wholesale,9.00,Bunch,GHS,MOFA
Ghana,Northern,Tamale,,,,Tamale,Plantains (apentu),2,2010,Wholesale,8.50,Bunch,GHS,MOFA
Ghana,Northern,Tamale,,,,Tamale,Plantains (apentu),3,2010,Wholesale,8.25,Bunch,GHS,MOFA
Ghana,Northern,Tamale,,,,Tamale,Plantains (apentu),4,2010,Wholesale,8.50,Bunch,GHS,MOFA
Ghana,Northern,Tamale,,,,Tamale,Plantains (apentu),5,2010,Wholesale,8.60,Bunch,GHS,MOFA
Ghana,Northern,Tamale,,,,Tamale,Plantains (apentu),6,2010,Wholesale,8.75,Bunch,GHS,MOFA
Ghana,Northern,Tamale,,,,Tamale,Plantains (apentu),7,2010,Wholesale,8.60,Bunch,GHS,MOFA
Ghana,Northern,Tamale,,,,Tamale,Plantains (apentu),8,2010,Wholesale,6.00,Bunch,GHS,MOFA
Ghana,Northern,Tamale,,,,Tamale,Plantains (apentu),9,2010,Wholesale,9.25,Bunch,GHS,MOFA
Ghana,Northern,Tamale,,,,Tamale,Plantains (apentu),10,2010,Wholesale,7.75,Bunch,GHS,MOFA
Ghana,Northern,Tamale,,,,Tamale,Plantains (apentu),11,2010,Wholesale,8.75,Bunch,GHS,MOFA
Ghana,Northern,Tamale,,,,Tamale,Plantains (apentu),12,2010,Wholesale,,Bunch,GHS,MOFA
Ghana,Northern,Tamale,,,,Tamale,Plantains (apentu),1,2009,Wholesale,7.20,Bunch,GHS,MOFA
Ghana,Northern,Tamale,,,,Tamale,Plantains (apentu),2,2009,Wholesale,7.50,Bunch,GHS,MOFA
Ghana,Northern,Tamale,,,,Tamale,Plantains (apentu),3,2009,Wholesale,7.75,Bunch,GHS,MOFA
Ghana,Northern,Tamale,,,,Tamale,Plantains (apentu),4,2009,Wholesale,7.78,Bunch,GHS,MOFA
Ghana,Northern,Tamale,,,,Tamale,Plantains (apentu),5,2009,Wholesale,8.00,Bunch,GHS,MOFA
Ghana,Northern,Tamale,,,,Tamale,Plantains (apentu),6,2009,Wholesale,8.80,Bunch,GHS,MOFA
Ghana,Northern,Tamale,,,,Tamale,Plantains (apentu),7,2009,Wholesale,7.50,Bunch,GHS,MOFA
Ghana,Northern,Tamale,,,,Tamale,Plantains (apentu),8,2009,Wholesale,8.40,Bunch,GHS,MOFA
Ghana,Northern,Tamale,,,,Tamale,Plantains (apentu),9,2009,Wholesale,8.00,Bunch,GHS,MOFA
Ghana,Northern,Tamale,,,,Tamale,Plantains (apentu),10,2009,Wholesale,8.00,Bunch,GHS,MOFA
Ghana,Northern,Tamale,,,,Tamale,Plantains (apentu),11,2009,Wholesale,7.75,Bunch,GHS,MOFA
Ghana,Northern,Tamale,,,,Tamale,Plantains (apentu),12,2009,Wholesale,7.75,Bunch,GHS,MOFA
Ghana,Northern,Tamale,,,,Tamale,Plantains (apentu),1,2008,Wholesale,5.00,Bunch,GHS,MOFA
Ghana,Northern,Tamale,,,,Tamale,Plantains (apentu),2,2008,Wholesale,4.75,Bunch,GHS,MOFA
Ghana,Northern,Tamale,,,,Tamale,Plantains (apentu),3,2008,Wholesale,4.67,Bunch,GHS,MOFA
Ghana,Northern,Tamale,,,,Tamale,Plantains (apentu),4,2008,Wholesale,5.00,Bunch,GHS,MOFA
Ghana,Northern,Tamale,,,,Tamale,Plantains (apentu),5,2008,Wholesale,7.25,Bunch,GHS,MOFA
Ghana,Northern,Tamale,,,,Tamale,Plantains (apentu),6,2008,Wholesale,9.33,Bunch,GHS,MOFA
Ghana,Northern,Tamale,,,,Tamale,Plantains (apentu),7,2008,Wholesale,8.00,Bunch,GHS,MOFA
Ghana,Northern,Tamale,,,,Tamale,Plantains (apentu),8,2008,Wholesale,8.75,Bunch,GHS,MOFA
Ghana,Northern,Tamale,,,,Tamale,Plantains (apentu),9,2008,Wholesale,7.50,Bunch,GHS,MOFA
Ghana,Northern,Tamale,,,,Tamale,Plantains (apentu),10,2008,Wholesale,7.50,Bunch,GHS,MOFA
Ghana,Northern,Tamale,,,,Tamale,Plantains (apentu),11,2008,Wholesale,7.20,Bunch,GHS,MOFA
Ghana,Northern,Tamale,,,,Tamale,Plantains (apentu),12,2008,Wholesale,6.75,Bunch,GHS,MOFA
Ghana,Northern,Tamale,,,,Tamale,Rice (imported),1,2014,Wholesale,,50 KG,GHS,MOFA
Ghana,Northern,Tamale,,,,Tamale,Rice (imported),2,2014,Wholesale,,50 KG,GHS,MOFA
Ghana,Northern,Tamale,,,,Tamale,Rice (imported),3,2014,Wholesale,,50 KG,GHS,MOFA
Ghana,Northern,Tamale,,,,Tamale,Rice (imported),4,2014,Wholesale,172.50,50 KG,GHS,MOFA
Ghana,Northern,Tamale,,,,Tamale,Rice (imported),5,2014,Wholesale,186.80,50 KG,GHS,MOFA
Ghana,Northern,Tamale,,,,Tamale,Rice (imported),6,2014,Wholesale,190.00,50 KG,GHS,MOFA
Ghana,Northern,Tamale,,,,Tamale,Rice (imported),7,2014,Wholesale,190.00,50 KG,GHS,MOFA
Ghana,Northern,Tamale,,,,Tamale,Rice (imported),8,2014,Wholesale,239.00,50 KG,GHS,MOFA
Ghana,Northern,Tamale,,,,Tamale,Rice (imported),9,2014,Wholesale,250.00,50 KG,GHS,MOFA
Ghana,Northern,Tamale,,,,Tamale,Rice (imported),10,2014,Wholesale,265.00,50 KG,GHS,MOFA
Ghana,Northern,Tamale,,,,Tamale,Rice (imported),11,2014,Wholesale,265.00,50 KG,GHS,MOFA
Ghana,Northern,Tamale,,,,Tamale,Rice (imported),12,2014,Wholesale,270.00,50 KG,GHS,MOFA
Ghana,Northern,Tamale,,,,Tamale,Rice (local),1,2014,Wholesale,81.20,50 KG,GHS,MOFA
Ghana,Northern,Tamale,,,,Tamale,Rice (local),2,2014,Wholesale,76.00,50 KG,GHS,MOFA
Ghana,Northern,Tamale,,,,Tamale,Rice (local),3,2014,Wholesale,64.00,50 KG,GHS,MOFA
Ghana,Northern,Tamale,,,,Tamale,Rice (local),4,2014,Wholesale,64.00,50 KG,GHS,MOFA
Ghana,Northern,Tamale,,,,Tamale,Rice (local),5,2014,Wholesale,76.80,50 KG,GHS,MOFA
Ghana,Northern,Tamale,,,,Tamale,Rice (local),6,2014,Wholesale,,50 KG,GHS,MOFA
Ghana,Northern,Tamale,,,,Tamale,Rice (local),7,2014,Wholesale,,50 KG,GHS,MOFA
Ghana,Northern,Tamale,,,,Tamale,Rice (local),8,2014,Wholesale,,50 KG,GHS,MOFA
Ghana,Northern,Tamale,,,,Tamale,Rice (local),9,2014,Wholesale,,50 KG,GHS,MOFA
Ghana,Northern,Tamale,,,,Tamale,Rice (local),10,2014,Wholesale,,50 KG,GHS,MOFA
Ghana,Northern,Tamale,,,,Tamale,Rice (local),11,2014,Wholesale,,50 KG,GHS,MOFA
Ghana,Northern,Tamale,,,,Tamale,Rice (local),12,2014,Wholesale,,50 KG,GHS,MOFA
Ghana,Northern,Tamale,,,,Tamale,Rice (local),1,2013,Wholesale,40.25,50 KG,GHS,MOFA
Ghana,Northern,Tamale,,,,Tamale,Rice (local),2,2013,Wholesale,29.00,50 KG,GHS,MOFA
Ghana,Northern,Tamale,,,,Tamale,Rice (local),3,2013,Wholesale,27.00,50 KG,GHS,MOFA
Ghana,Northern,Tamale,,,,Tamale,Rice (local),4,2013,Wholesale,34.00,50 KG,GHS,MOFA
Ghana,Northern,Tamale,,,,Tamale,Rice (local),5,2013,Wholesale,36.00,50 KG,GHS,MOFA
Ghana,Northern,Tamale,,,,Tamale,Rice (local),6,2013,Wholesale,83.00,50 KG,GHS,MOFA
Ghana,Northern,Tamale,,,,Tamale,Rice (local),7,2013,Wholesale,95.00,50 KG,GHS,MOFA
Ghana,Northern,Tamale,,,,Tamale,Rice (local),8,2013,Wholesale,95.00,50 KG,GHS,MOFA
Ghana,Northern,Tamale,,,,Tamale,Rice (local),9,2013,Wholesale,69.00,50 KG,GHS,MOFA
Ghana,Northern,Tamale,,,,Tamale,Rice (local),10,2013,Wholesale,80.00,50 KG,GHS,MOFA
Ghana,Northern,Tamale,,,,Tamale,Rice (local),11,2013,Wholesale,75.50,50 KG,GHS,MOFA
Ghana,Northern,Tamale,,,,Tamale,Rice (local),12,2013,Wholesale,60.00,50 KG,GHS,MOFA
Ghana,Northern,Tamale,,,,Tamale,Rice (local),1,2012,Wholesale,64.50,50 KG,GHS,MOFA
Ghana,Northern,Tamale,,,,Tamale,Rice (local),2,2012,Wholesale,54.00,50 KG,GHS,MOFA
Ghana,Northern,Tamale,,,,Tamale,Rice (local),3,2012,Wholesale,48.60,50 KG,GHS,MOFA
Ghana,Northern,Tamale,,,,Tamale,Rice (local),4,2012,Wholesale,48.50,50 KG,GHS,MOFA
Ghana,Northern,Tamale,,,,Tamale,Rice (local),5,2012,Wholesale,55.50,50 KG,GHS,MOFA
Ghana,Northern,Tamale,,,,Tamale,Rice (local),6,2012,Wholesale,59.60,50 KG,GHS,MOFA
Ghana,Northern,Tamale,,,,Tamale,Rice (local),7,2012,Wholesale,56.00,50 KG,GHS,MOFA
Ghana,Northern,Tamale,,,,Tamale,Rice (local),8,2012,Wholesale,40.63,50 KG,GHS,MOFA
Ghana,Northern,Tamale,,,,Tamale,Rice (local),9,2012,Wholesale,33.25,50 KG,GHS,MOFA
Ghana,Northern,Tamale,,,,Tamale,Rice (local),10,2012,Wholesale,42.00,50 KG,GHS,MOFA
Ghana,Northern,Tamale,,,,Tamale,Rice (local),11,2012,Wholesale,34.25,50 KG,GHS,MOFA
Ghana,Northern,Tamale,,,,Tamale,Rice (local),12,2012,Wholesale,67.60,50 KG,GHS,MOFA
Ghana,Northern,Tamale,,,,Tamale,Rice (local),1,2011,Wholesale,29.00,50 KG,GHS,MOFA
Ghana,Northern,Tamale,,,,Tamale,Rice (local),2,2011,Wholesale,24.60,50 KG,GHS,MOFA
Ghana,Northern,Tamale,,,,Tamale,Rice (local),3,2011,Wholesale,29.00,50 KG,GHS,MOFA
Ghana,Northern,Tamale,,,,Tamale,Rice (local),4,2011,Wholesale,32.75,50 KG,GHS,MOFA
Ghana,Northern,Tamale,,,,Tamale,Rice (local),5,2011,Wholesale,35.00,50 KG,GHS,MOFA
Ghana,Northern,Tamale,,,,Tamale,Rice (local),6,2011,Wholesale,39.00,50 KG,GHS,MOFA
Ghana,Northern,Tamale,,,,Tamale,Rice (local),7,2011,Wholesale,47.25,50 KG,GHS,MOFA
Ghana,Northern,Tamale,,,,Tamale,Rice (local),8,2011,Wholesale,52.67,50 KG,GHS,MOFA
Ghana,Northern,Tamale,,,,Tamale,Rice (local),9,2011,Wholesale,47.75,50 KG,GHS,MOFA
Ghana,Northern,Tamale,,,,Tamale,Rice (local),10,2011,Wholesale,48.25,50 KG,GHS,MOFA
Ghana,Northern,Tamale,,,,Tamale,Rice (local),11,2011,Wholesale,53.00,50 KG,GHS,MOFA
Ghana,Northern,Tamale,,,,Tamale,Rice (local),12,2011,Wholesale,56.80,50 KG,GHS,MOFA
Ghana,Northern,Tamale,,,,Tamale,Rice (local),1,2010,Wholesale,30.00,50 KG,GHS,MOFA
Ghana,Northern,Tamale,,,,Tamale,Rice (local),2,2010,Wholesale,28.75,50 KG,GHS,MOFA
Ghana,Northern,Tamale,,,,Tamale,Rice (local),3,2010,Wholesale,30.50,50 KG,GHS,MOFA
Ghana,Northern,Tamale,,,,Tamale,Rice (local),4,2010,Wholesale,30.13,50 KG,GHS,MOFA
Ghana,Northern,Tamale,,,,Tamale,Rice (local),5,2010,Wholesale,28.40,50 KG,GHS,MOFA
Ghana,Northern,Tamale,,,,Tamale,Rice (local),6,2010,Wholesale,30.75,50 KG,GHS,MOFA
Ghana,Northern,Tamale,,,,Tamale,Rice (local),7,2010,Wholesale,32.20,50 KG,GHS,MOFA
Ghana,Northern,Tamale,,,,Tamale,Rice (local),8,2010,Wholesale,53.00,50 KG,GHS,MOFA
Ghana,Northern,Tamale,,,,Tamale,Rice (local),9,2010,Wholesale,31.00,50 KG,GHS,MOFA
Ghana,Northern,Tamale,,,,Tamale,Rice (local),10,2010,Wholesale,33.00,50 KG,GHS,MOFA
Ghana,Northern,Tamale,,,,Tamale,Rice (local),11,2010,Wholesale,40.00,50 KG,GHS,MOFA
Ghana,Northern,Tamale,,,,Tamale,Rice (local),12,2010,Wholesale,,50 KG,GHS,MOFA
Ghana,Northern,Tamale,,,,Tamale,Rice (local),1,2009,Wholesale,28.00,50 KG,GHS,MOFA
Ghana,Northern,Tamale,,,,Tamale,Rice (local),2,2009,Wholesale,23.00,50 KG,GHS,MOFA
Ghana,Northern,Tamale,,,,Tamale,Rice (local),3,2009,Wholesale,29.50,50 KG,GHS,MOFA
Ghana,Northern,Tamale,,,,Tamale,Rice (local),4,2009,Wholesale,30.00,50 KG,GHS,MOFA
Ghana,Northern,Tamale,,,,Tamale,Rice (local),5,2009,Wholesale,30.00,50 KG,GHS,MOFA
Ghana,Northern,Tamale,,,,Tamale,Rice (local),6,2009,Wholesale,40.00,50 KG,GHS,MOFA
Ghana,Northern,Tamale,,,,Tamale,Rice (local),7,2009,Wholesale,40.00,50 KG,GHS,MOFA
Ghana,Northern,Tamale,,,,Tamale,Rice (local),8,2009,Wholesale,38.80,50 KG,GHS,MOFA
Ghana,Northern,Tamale,,,,Tamale,Rice (local),9,2009,Wholesale,37.50,50 KG,GHS,MOFA
Ghana,Northern,Tamale,,,,Tamale,Rice (local),10,2009,Wholesale,29.75,50 KG,GHS,MOFA
Ghana,Northern,Tamale,,,,Tamale,Rice (local),11,2009,Wholesale,30.00,50 KG,GHS,MOFA
Ghana,Northern,Tamale,,,,Tamale,Rice (local),12,2009,Wholesale,30.00,50 KG,GHS,MOFA
Ghana,Northern,Tamale,,,,Tamale,Rice (local),1,2008,Wholesale,20.25,50 KG,GHS,MOFA
Ghana,Northern,Tamale,,,,Tamale,Rice (local),2,2008,Wholesale,22.50,50 KG,GHS,MOFA
Ghana,Northern,Tamale,,,,Tamale,Rice (local),3,2008,Wholesale,24.33,50 KG,GHS,MOFA
Ghana,Northern,Tamale,,,,Tamale,Rice (local),4,2008,Wholesale,24.50,50 KG,GHS,MOFA
Ghana,Northern,Tamale,,,,Tamale,Rice (local),5,2008,Wholesale,31.00,50 KG,GHS,MOFA
Ghana,Northern,Tamale,,,,Tamale,Rice (local),6,2008,Wholesale,34.37,50 KG,GHS,MOFA
Ghana,Northern,Tamale,,,,Tamale,Rice (local),7,2008,Wholesale,48.50,50 KG,GHS,MOFA
Ghana,Northern,Tamale,,,,Tamale,Rice (local),8,2008,Wholesale,49.63,50 KG,GHS,MOFA
Ghana,Northern,Tamale,,,,Tamale,Rice (local),9,2008,Wholesale,60.00,50 KG,GHS,MOFA
Ghana,Northern,Tamale,,,,Tamale,Rice (local),10,2008,Wholesale,50.50,50 KG,GHS,MOFA
Ghana,Northern,Tamale,,,,Tamale,Rice (local),11,2008,Wholesale,36.40,50 KG,GHS,MOFA
Ghana,Northern,Tamale,,,,Tamale,Rice (local),12,2008,Wholesale,29.50,50 KG,GHS,MOFA
Ghana,Northern,Tamale,,,,Tamale,Yam,1,2014,Wholesale,212.00,100 Tubers,GHS,MOFA
Ghana,Northern,Tamale,,,,Tamale,Yam,2,2014,Wholesale,180.00,100 Tubers,GHS,MOFA
Ghana,Northern,Tamale,,,,Tamale,Yam,3,2014,Wholesale,158.00,100 Tubers,GHS,MOFA
Ghana,Northern,Tamale,,,,Tamale,Yam,4,2014,Wholesale,134.75,100 Tubers,GHS,MOFA
Ghana,Northern,Tamale,,,,Tamale,Yam,5,2014,Wholesale,118.20,100 Tubers,GHS,MOFA
Ghana,Northern,Tamale,,,,Tamale,Yam,6,2014,Wholesale,200.00,100 Tubers,GHS,MOFA
Ghana,Northern,Tamale,,,,Tamale,Yam,7,2014,Wholesale,200.00,100 Tubers,GHS,MOFA
Ghana,Northern,Tamale,,,,Tamale,Yam,8,2014,Wholesale,141.75,100 Tubers,GHS,MOFA
Ghana,Northern,Tamale,,,,Tamale,Yam,9,2014,Wholesale,100.00,100 Tubers,GHS,MOFA
Ghana,Northern,Tamale,,,,Tamale,Yam,10,2014,Wholesale,92.50,100 Tubers,GHS,MOFA
Ghana,Northern,Tamale,,,,Tamale,Yam,11,2014,Wholesale,145.00,100 Tubers,GHS,MOFA
Ghana,Northern,Tamale,,,,Tamale,Yam,12,2014,Wholesale,120.00,100 Tubers,GHS,MOFA
Ghana,Northern,Tamale,,,,Tamale,Yam,1,2013,Wholesale,100.00,100 Tubers,GHS,MOFA
Ghana,Northern,Tamale,,,,Tamale,Yam,2,2013,Wholesale,100.00,100 Tubers,GHS,MOFA
Ghana,Northern,Tamale,,,,Tamale,Yam,3,2013,Wholesale,120.00,100 Tubers,GHS,MOFA
Ghana,Northern,Tamale,,,,Tamale,Yam,4,2013,Wholesale,175.00,100 Tubers,GHS,MOFA
Ghana,Northern,Tamale,,,,Tamale,Yam,5,2013,Wholesale,185.00,100 Tubers,GHS,MOFA
Ghana,Northern,Tamale,,,,Tamale,Yam,6,2013,Wholesale,198.00,100 Tubers,GHS,MOFA
Ghana,Northern,Tamale,,,,Tamale,Yam,7,2013,Wholesale,200.00,100 Tubers,GHS,MOFA
Ghana,Northern,Tamale,,,,Tamale,Yam,8,2013,Wholesale,200.00,100 Tubers,GHS,MOFA
Ghana,Northern,Tamale,,,,Tamale,Yam,9,2013,Wholesale,155.00,100 Tubers,GHS,MOFA
Ghana,Northern,Tamale,,,,Tamale,Yam,10,2013,Wholesale,100.00,100 Tubers,GHS,MOFA
Ghana,Northern,Tamale,,,,Tamale,Yam,11,2013,Wholesale,165.00,100 Tubers,GHS,MOFA
Ghana,Northern,Tamale,,,,Tamale,Yam,12,2013,Wholesale,155.00,100 Tubers,GHS,MOFA
Ghana,Northern,Tamale,,,,Tamale,Yam,1,2012,Wholesale,137.50,100 Tubers,GHS,MOFA
Ghana,Northern,Tamale,,,,Tamale,Yam,2,2012,Wholesale,150.00,100 Tubers,GHS,MOFA
Ghana,Northern,Tamale,,,,Tamale,Yam,3,2012,Wholesale,150.00,100 Tubers,GHS,MOFA
Ghana,Northern,Tamale,,,,Tamale,Yam,4,2012,Wholesale,150.00,100 Tubers,GHS,MOFA
Ghana,Northern,Tamale,,,,Tamale,Yam,5,2012,Wholesale,152.50,100 Tubers,GHS,MOFA
Ghana,Northern,Tamale,,,,Tamale,Yam,6,2012,Wholesale,166.00,100 Tubers,GHS,MOFA
Ghana,Northern,Tamale,,,,Tamale,Yam,7,2012,Wholesale,185.00,100 Tubers,GHS,MOFA
Ghana,Northern,Tamale,,,,Tamale,Yam,8,2012,Wholesale,147.50,100 Tubers,GHS,MOFA
Ghana,Northern,Tamale,,,,Tamale,Yam,9,2012,Wholesale,115.00,100 Tubers,GHS,MOFA
Ghana,Northern,Tamale,,,,Tamale,Yam,10,2012,Wholesale,75.00,100 Tubers,GHS,MOFA
Ghana,Northern,Tamale,,,,Tamale,Yam,11,2012,Wholesale,97.50,100 Tubers,GHS,MOFA
Ghana,Northern,Tamale,,,,Tamale,Yam,12,2012,Wholesale,100.00,100 Tubers,GHS,MOFA
Ghana,Northern,Tamale,,,,Tamale,Yam,1,2011,Wholesale,93.33,100 Tubers,GHS,MOFA
Ghana,Northern,Tamale,,,,Tamale,Yam,2,2011,Wholesale,88.00,100 Tubers,GHS,MOFA
Ghana,Northern,Tamale,,,,Tamale,Yam,3,2011,Wholesale,80.00,100 Tubers,GHS,MOFA
Ghana,Northern,Tamale,,,,Tamale,Yam,4,2011,Wholesale,100.00,100 Tubers,GHS,MOFA
Ghana,Northern,Tamale,,,,Tamale,Yam,5,2011,Wholesale,120.00,100 Tubers,GHS,MOFA
Ghana,Northern,Tamale,,,,Tamale,Yam,6,2011,Wholesale,150.00,100 Tubers,GHS,MOFA
Ghana,Northern,Tamale,,,,Tamale,Yam,7,2011,Wholesale,145.00,100 Tubers,GHS,MOFA
Ghana,Northern,Tamale,,,,Tamale,Yam,8,2011,Wholesale,120.00,100 Tubers,GHS,MOFA
Ghana,Northern,Tamale,,,,Tamale,Yam,9,2011,Wholesale,95.00,100 Tubers,GHS,MOFA
Ghana,Northern,Tamale,,,,Tamale,Yam,10,2011,Wholesale,90.00,100 Tubers,GHS,MOFA
Ghana,Northern,Tamale,,,,Tamale,Yam,11,2011,Wholesale,100.00,100 Tubers,GHS,MOFA
Ghana,Northern,Tamale,,,,Tamale,Yam,12,2011,Wholesale,100.00,100 Tubers,GHS,MOFA
Ghana,Northern,Tamale,,,,Tamale,Yam,1,2010,Wholesale,164.00,100 Tubers,GHS,MOFA
Ghana,Northern,Tamale,,,,Tamale,Yam,2,2010,Wholesale,120.00,100 Tubers,GHS,MOFA
Ghana,Northern,Tamale,,,,Tamale,Yam,3,2010,Wholesale,120.00,100 Tubers,GHS,MOFA
Ghana,Northern,Tamale,,,,Tamale,Yam,4,2010,Wholesale,115.00,100 Tubers,GHS,MOFA
Ghana,Northern,Tamale,,,,Tamale,Yam,5,2010,Wholesale,144.00,100 Tubers,GHS,MOFA
Ghana,Northern,Tamale,,,,Tamale,Yam,6,2010,Wholesale,,100 Tubers,GHS,MOFA
Ghana,Northern,Tamale,,,,Tamale,Yam,7,2010,Wholesale,200.00,100 Tubers,GHS,MOFA
Ghana,Northern,Tamale,,,,Tamale,Yam,8,2010,Wholesale,180.00,100 Tubers,GHS,MOFA
Ghana,Northern,Tamale,,,,Tamale,Yam,9,2010,Wholesale,110.00,100 Tubers,GHS,MOFA
Ghana,Northern,Tamale,,,,Tamale,Yam,10,2010,Wholesale,90.00,100 Tubers,GHS,MOFA
Ghana,Northern,Tamale,,,,Tamale,Yam,11,2010,Wholesale,115.00,100 Tubers,GHS,MOFA
Ghana,Northern,Tamale,,,,Tamale,Yam,12,2010,Wholesale,,100 Tubers,GHS,MOFA
Ghana,Northern,Tamale,,,,Tamale,Yam,1,2009,Wholesale,107.00,100 Tubers,GHS,MOFA
Ghana,Northern,Tamale,,,,Tamale,Yam,2,2009,Wholesale,96.25,100 Tubers,GHS,MOFA
Ghana,Northern,Tamale,,,,Tamale,Yam,3,2009,Wholesale,103.75,100 Tubers,GHS,MOFA
Ghana,Northern,Tamale,,,,Tamale,Yam,4,2009,Wholesale,117.50,100 Tubers,GHS,MOFA
Ghana,Northern,Tamale,,,,Tamale,Yam,5,2009,Wholesale,125.00,100 Tubers,GHS,MOFA
Ghana,Northern,Tamale,,,,Tamale,Yam,6,2009,Wholesale,136.00,100 Tubers,GHS,MOFA
Ghana,Northern,Tamale,,,,Tamale,Yam,7,2009,Wholesale,132.50,100 Tubers,GHS,MOFA
Ghana,Northern,Tamale,,,,Tamale,Yam,8,2009,Wholesale,100.00,100 Tubers,GHS,MOFA
Ghana,Northern,Tamale,,,,Tamale,Yam,9,2009,Wholesale,81.25,100 Tubers,GHS,MOFA
Ghana,Northern,Tamale,,,,Tamale,Yam,10,2009,Wholesale,100.00,100 Tubers,GHS,MOFA
Ghana,Northern,Tamale,,,,Tamale,Yam,11,2009,Wholesale,140.00,100 Tubers,GHS,MOFA
Ghana,Northern,Tamale,,,,Tamale,Yam,12,2009,Wholesale,140.00,100 Tubers,GHS,MOFA
Ghana,Northern,Tamale,,,,Tamale,Yam,1,2008,Wholesale,94.25,100 Tubers,GHS,MOFA
Ghana,Northern,Tamale,,,,Tamale,Yam,2,2008,Wholesale,95.00,100 Tubers,GHS,MOFA
Ghana,Northern,Tamale,,,,Tamale,Yam,3,2008,Wholesale,104.33,100 Tubers,GHS,MOFA
Ghana,Northern,Tamale,,,,Tamale,Yam,4,2008,Wholesale,125.00,100 Tubers,GHS,MOFA
Ghana,Northern,Tamale,,,,Tamale,Yam,5,2008,Wholesale,137.50,100 Tubers,GHS,MOFA
Ghana,Northern,Tamale,,,,Tamale,Yam,6,2008,Wholesale,132.50,100 Tubers,GHS,MOFA
Ghana,Northern,Tamale,,,,Tamale,Yam,7,2008,Wholesale,136.67,100 Tubers,GHS,MOFA
Ghana,Northern,Tamale,,,,Tamale,Yam,8,2008,Wholesale,92.50,100 Tubers,GHS,MOFA
Ghana,Northern,Tamale,,,,Tamale,Yam,9,2008,Wholesale,58.75,100 Tubers,GHS,MOFA
Ghana,Northern,Tamale,,,,Tamale,Yam,10,2008,Wholesale,57.50,100 Tubers,GHS,MOFA
Ghana,Northern,Tamale,,,,Tamale,Yam,11,2008,Wholesale,64.00,100 Tubers,GHS,MOFA
Ghana,Northern,Tamale,,,,Tamale,Yam,12,2008,Wholesale,115.00,100 Tubers,GHS,MOFA
Ghana,Upper East,Builsa,,,,Fumbisi,Cassava,1,2014,Wholesale,,91 KG,GHS,MOFA
Ghana,Upper East,Builsa,,,,Fumbisi,Cassava,2,2014,Wholesale,,91 KG,GHS,MOFA
Ghana,Upper East,Builsa,,,,Fumbisi,Cassava,3,2014,Wholesale,,91 KG,GHS,MOFA
Ghana,Upper East,Builsa,,,,Fumbisi,Cassava,4,2014,Wholesale,,91 KG,GHS,MOFA
Ghana,Upper East,Builsa,,,,Fumbisi,Cassava,5,2014,Wholesale,,91 KG,GHS,MOFA
Ghana,Upper East,Builsa,,,,Fumbisi,Cassava,6,2014,Wholesale,,91 KG,GHS,MOFA
Ghana,Upper East,Builsa,,,,Fumbisi,Cassava,7,2014,Wholesale,,91 KG,GHS,MOFA
Ghana,Upper East,Builsa,,,,Fumbisi,Cassava,8,2014,Wholesale,,91 KG,GHS,MOFA
Ghana,Upper East,Builsa,,,,Fumbisi,Cassava,9,2014,Wholesale,,91 KG,GHS,MOFA
Ghana,Upper East,Builsa,,,,Fumbisi,Cassava,10,2014,Wholesale,28.50,91 KG,GHS,MOFA
Ghana,Upper East,Builsa,,,,Fumbisi,Cassava,11,2014,Wholesale,,91 KG,GHS,MOFA
Ghana,Upper East,Builsa,,,,Fumbisi,Cassava,12,2014,Wholesale,,91 KG,GHS,MOFA
Ghana,Upper East,Builsa,,,,Fumbisi,Maize,1,2014,Wholesale,,100 KG,GHS,MOFA
Ghana,Upper East,Builsa,,,,Fumbisi,Maize,2,2014,Wholesale,,100 KG,GHS,MOFA
Ghana,Upper East,Builsa,,,,Fumbisi,Maize,3,2014,Wholesale,,100 KG,GHS,MOFA
Ghana,Upper East,Builsa,,,,Fumbisi,Maize,4,2014,Wholesale,,100 KG,GHS,MOFA
Ghana,Upper East,Builsa,,,,Fumbisi,Maize,5,2014,Wholesale,,100 KG,GHS,MOFA
Ghana,Upper East,Builsa,,,,Fumbisi,Maize,6,2014,Wholesale,,100 KG,GHS,MOFA
Ghana,Upper East,Builsa,,,,Fumbisi,Maize,7,2014,Wholesale,,100 KG,GHS,MOFA
Ghana,Upper East,Builsa,,,,Fumbisi,Maize,8,2014,Wholesale,,100 KG,GHS,MOFA
Ghana,Upper East,Builsa,,,,Fumbisi,Maize,9,2014,Wholesale,,100 KG,GHS,MOFA
Ghana,Upper East,Builsa,,,,Fumbisi,Maize,10,2014,Wholesale,67.40,100 KG,GHS,MOFA
Ghana,Upper East,Builsa,,,,Fumbisi,Maize,11,2014,Wholesale,,100 KG,GHS,MOFA
Ghana,Upper East,Builsa,,,,Fumbisi,Maize,12,2014,Wholesale,,100 KG,GHS,MOFA
Ghana,Upper East,Builsa,,,,Fumbisi,Rice (imported),1,2014,Wholesale,,50 KG,GHS,MOFA
Ghana,Upper East,Builsa,,,,Fumbisi,Rice (imported),2,2014,Wholesale,,50 KG,GHS,MOFA
Ghana,Upper East,Builsa,,,,Fumbisi,Rice (imported),3,2014,Wholesale,,50 KG,GHS,MOFA
Ghana,Upper East,Builsa,,,,Fumbisi,Rice (imported),4,2014,Wholesale,,50 KG,GHS,MOFA
Ghana,Upper East,Builsa,,,,Fumbisi,Rice (imported),5,2014,Wholesale,,50 KG,GHS,MOFA
Ghana,Upper East,Builsa,,,,Fumbisi,Rice (imported),6,2014,Wholesale,,50 KG,GHS,MOFA
Ghana,Upper East,Builsa,,,,Fumbisi,Rice (imported),7,2014,Wholesale,,50 KG,GHS,MOFA
Ghana,Upper East,Builsa,,,,Fumbisi,Rice (imported),8,2014,Wholesale,,50 KG,GHS,MOFA
Ghana,Upper East,Builsa,,,,Fumbisi,Rice (imported),9,2014,Wholesale,,50 KG,GHS,MOFA
Ghana,Upper East,Builsa,,,,Fumbisi,Rice (imported),10,2014,Wholesale,135.75,50 KG,GHS,MOFA
Ghana,Upper East,Builsa,,,,Fumbisi,Rice (imported),11,2014,Wholesale,,50 KG,GHS,MOFA
Ghana,Upper East,Builsa,,,,Fumbisi,Rice (imported),12,2014,Wholesale,,50 KG,GHS,MOFA
Ghana,Upper East,Builsa,,,,Fumbisi,Rice (local),1,2014,Wholesale,,100 KG,GHS,MOFA
Ghana,Upper East,Builsa,,,,Fumbisi,Rice (local),2,2014,Wholesale,,100 KG,GHS,MOFA
Ghana,Upper East,Builsa,,,,Fumbisi,Rice (local),3,2014,Wholesale,,100 KG,GHS,MOFA
Ghana,Upper East,Builsa,,,,Fumbisi,Rice (local),4,2014,Wholesale,,100 KG,GHS,MOFA
Ghana,Upper East,Builsa,,,,Fumbisi,Rice (local),5,2014,Wholesale,,100 KG,GHS,MOFA
Ghana,Upper East,Builsa,,,,Fumbisi,Rice (local),6,2014,Wholesale,,100 KG,GHS,MOFA
Ghana,Upper East,Builsa,,,,Fumbisi,Rice (local),7,2014,Wholesale,,100 KG,GHS,MOFA
Ghana,Upper East,Builsa,,,,Fumbisi,Rice (local),8,2014,Wholesale,,100 KG,GHS,MOFA
Ghana,Upper East,Builsa,,,,Fumbisi,Rice (local),9,2014,Wholesale,,100 KG,GHS,MOFA
Ghana,Upper East,Builsa,,,,Fumbisi,Rice (local),10,2014,Wholesale,236.00,100 KG,GHS,MOFA
Ghana,Upper East,Builsa,,,,Fumbisi,Rice (local),11,2014,Wholesale,,100 KG,GHS,MOFA
Ghana,Upper East,Builsa,,,,Fumbisi,Rice (local),12,2014,Wholesale,,100 KG,GHS,MOFA
Ghana,Northern,East Mamprusi,,,,Nalerigu,Maize,1,2014,Wholesale,,100 KG,GHS,MOFA
Ghana,Northern,East Mamprusi,,,,Nalerigu,Maize,2,2014,Wholesale,,100 KG,GHS,MOFA
Ghana,Northern,East Mamprusi,,,,Nalerigu,Maize,3,2014,Wholesale,,100 KG,GHS,MOFA
Ghana,Northern,East Mamprusi,,,,Nalerigu,Maize,4,2014,Wholesale,,100 KG,GHS,MOFA
Ghana,Northern,East Mamprusi,,,,Nalerigu,Maize,5,2014,Wholesale,,100 KG,GHS,MOFA
Ghana,Northern,East Mamprusi,,,,Nalerigu,Maize,6,2014,Wholesale,,100 KG,GHS,MOFA
Ghana,Northern,East Mamprusi,,,,Nalerigu,Maize,7,2014,Wholesale,,100 KG,GHS,MOFA
Ghana,Northern,East Mamprusi,,,,Nalerigu,Maize,8,2014,Wholesale,,100 KG,GHS,MOFA
Ghana,Northern,East Mamprusi,,,,Nalerigu,Maize,9,2014,Wholesale,,100 KG,GHS,MOFA
Ghana,Northern,East Mamprusi,,,,Nalerigu,Maize,10,2014,Wholesale,103.00,100 KG,GHS,MOFA
Ghana,Northern,East Mamprusi,,,,Nalerigu,Maize,11,2014,Wholesale,,100 KG,GHS,MOFA
Ghana,Northern,East Mamprusi,,,,Nalerigu,Maize,12,2014,Wholesale,,100 KG,GHS,MOFA
Ghana,Northern,East Mamprusi,,,,Nalerigu,Rice (imported),1,2014,Wholesale,,50 KG,GHS,MOFA
Ghana,Northern,East Mamprusi,,,,Nalerigu,Rice (imported),2,2014,Wholesale,,50 KG,GHS,MOFA
Ghana,Northern,East Mamprusi,,,,Nalerigu,Rice (imported),3,2014,Wholesale,,50 KG,GHS,MOFA
Ghana,Northern,East Mamprusi,,,,Nalerigu,Rice (imported),4,2014,Wholesale,,50 KG,GHS,MOFA
Ghana,Northern,East Mamprusi,,,,Nalerigu,Rice (imported),5,2014,Wholesale,,50 KG,GHS,MOFA
Ghana,Northern,East Mamprusi,,,,Nalerigu,Rice (imported),6,2014,Wholesale,,50 KG,GHS,MOFA
Ghana,Northern,East Mamprusi,,,,Nalerigu,Rice (imported),7,2014,Wholesale,,50 KG,GHS,MOFA
Ghana,Northern,East Mamprusi,,,,Nalerigu,Rice (imported),8,2014,Wholesale,,50 KG,GHS,MOFA
Ghana,Northern,East Mamprusi,,,,Nalerigu,Rice (imported),9,2014,Wholesale,,50 KG,GHS,MOFA
Ghana,Northern,East Mamprusi,,,,Nalerigu,Rice (imported),10,2014,Wholesale,280.00,50 KG,GHS,MOFA
Ghana,Northern,East Mamprusi,,,,Nalerigu,Rice (imported),11,2014,Wholesale,,50 KG,GHS,MOFA
Ghana,Northern,East Mamprusi,,,,Nalerigu,Rice (imported),12,2014,Wholesale,,50 KG,GHS,MOFA
Ghana,Northern,East Mamprusi,,,,Nalerigu,Rice (local),1,2014,Wholesale,,100 KG,GHS,MOFA
Ghana,Northern,East Mamprusi,,,,Nalerigu,Rice (local),2,2014,Wholesale,,100 KG,GHS,MOFA
Ghana,Northern,East Mamprusi,,,,Nalerigu,Rice (local),3,2014,Wholesale,,100 KG,GHS,MOFA
Ghana,Northern,East Mamprusi,,,,Nalerigu,Rice (local),4,2014,Wholesale,,100 KG,GHS,MOFA
Ghana,Northern,East Mamprusi,,,,Nalerigu,Rice (local),5,2014,Wholesale,,100 KG,GHS,MOFA
Ghana,Northern,East Mamprusi,,,,Nalerigu,Rice (local),6,2014,Wholesale,,100 KG,GHS,MOFA
Ghana,Northern,East Mamprusi,,,,Nalerigu,Rice (local),7,2014,Wholesale,,100 KG,GHS,MOFA
Ghana,Northern,East Mamprusi,,,,Nalerigu,Rice (local),8,2014,Wholesale,,100 KG,GHS,MOFA
Ghana,Northern,East Mamprusi,,,,Nalerigu,Rice (local),9,2014,Wholesale,,100 KG,GHS,MOFA
Ghana,Northern,East Mamprusi,,,,Nalerigu,Rice (local),10,2014,Wholesale,245.00,100 KG,GHS,MOFA
Ghana,Northern,East Mamprusi,,,,Nalerigu,Rice (local),11,2014,Wholesale,,100 KG,GHS,MOFA
Ghana,Northern,East Mamprusi,,,,Nalerigu,Rice (local),12,2014,Wholesale,,100 KG,GHS,MOFA
Ghana,Upper East,Bolgatanga,,,,Bolga,Cassava,1,2014,Wholesale,15.40,91 KG,GHS,MOFA
Ghana,Upper East,Bolgatanga,,,,Bolga,Cassava,2,2014,Wholesale,,91 KG,GHS,MOFA
Ghana,Upper East,Bolgatanga,,,,Bolga,Cassava,3,2014,Wholesale,,91 KG,GHS,MOFA
Ghana,Upper East,Bolgatanga,,,,Bolga,Cassava,4,2014,Wholesale,,91 KG,GHS,MOFA
Ghana,Upper East,Bolgatanga,,,,Bolga,Cassava,5,2014,Wholesale,,91 KG,GHS,MOFA
Ghana,Upper East,Bolgatanga,,,,Bolga,Cassava,6,2014,Wholesale,,91 KG,GHS,MOFA
Ghana,Upper East,Bolgatanga,,,,Bolga,Cassava,7,2014,Wholesale,,91 KG,GHS,MOFA
Ghana,Upper East,Bolgatanga,,,,Bolga,Cassava,8,2014,Wholesale,,91 KG,GHS,MOFA
Ghana,Upper East,Bolgatanga,,,,Bolga,Cassava,9,2014,Wholesale,,91 KG,GHS,MOFA
Ghana,Upper East,Bolgatanga,,,,Bolga,Cassava,10,2014,Wholesale,,91 KG,GHS,MOFA
Ghana,Upper East,Bolgatanga,,,,Bolga,Cassava,11,2014,Wholesale,,91 KG,GHS,MOFA
Ghana,Upper East,Bolgatanga,,,,Bolga,Cassava,12,2014,Wholesale,,91 KG,GHS,MOFA
Ghana,Upper East,Bolgatanga,,,,Bolga,Cassava,1,2011,Wholesale,30.00,91 KG,GHS,MOFA
Ghana,Upper East,Bolgatanga,,,,Bolga,Cassava,2,2011,Wholesale,32.00,91 KG,GHS,MOFA
Ghana,Upper East,Bolgatanga,,,,Bolga,Cassava,3,2011,Wholesale,45.00,91 KG,GHS,MOFA
Ghana,Upper East,Bolgatanga,,,,Bolga,Cassava,4,2011,Wholesale,50.00,91 KG,GHS,MOFA
Ghana,Upper East,Bolgatanga,,,,Bolga,Cassava,5,2011,Wholesale,50.00,91 KG,GHS,MOFA
Ghana,Upper East,Bolgatanga,,,,Bolga,Cassava,6,2011,Wholesale,60.00,91 KG,GHS,MOFA
Ghana,Upper East,Bolgatanga,,,,Bolga,Cassava,7,2011,Wholesale,60.00,91 KG,GHS,MOFA
Ghana,Upper East,Bolgatanga,,,,Bolga,Cassava,8,2011,Wholesale,53.33,91 KG,GHS,MOFA
Ghana,Upper East,Bolgatanga,,,,Bolga,Cassava,9,2011,Wholesale,60.00,91 KG,GHS,MOFA
Ghana,Upper East,Bolgatanga,,,,Bolga,Cassava,10,2011,Wholesale,60.00,91 KG,GHS,MOFA
Ghana,Upper East,Bolgatanga,,,,Bolga,Cassava,11,2011,Wholesale,,91 KG,GHS,MOFA
Ghana,Upper East,Bolgatanga,,,,Bolga,Cassava,12,2011,Wholesale,,91 KG,GHS,MOFA
Ghana,Upper East,Bolgatanga,,,,Bolga,Cassava,1,2010,Wholesale,,91 KG,GHS,MOFA
Ghana,Upper East,Bolgatanga,,,,Bolga,Cassava,2,2010,Wholesale,13.00,91 KG,GHS,MOFA
Ghana,Upper East,Bolgatanga,,,,Bolga,Cassava,3,2010,Wholesale,,91 KG,GHS,MOFA
Ghana,Upper East,Bolgatanga,,,,Bolga,Cassava,4,2010,Wholesale,,91 KG,GHS,MOFA
Ghana,Upper East,Bolgatanga,,,,Bolga,Cassava,5,2010,Wholesale,,91 KG,GHS,MOFA
Ghana,Upper East,Bolgatanga,,,,Bolga,Cassava,6,2010,Wholesale,,91 KG,GHS,MOFA
Ghana,Upper East,Bolgatanga,,,,Bolga,Cassava,7,2010,Wholesale,52.00,91 KG,GHS,MOFA
Ghana,Upper East,Bolgatanga,,,,Bolga,Cassava,8,2010,Wholesale,,91 KG,GHS,MOFA
Ghana,Upper East,Bolgatanga,,,,Bolga,Cassava,9,2010,Wholesale,40.00,91 KG,GHS,MOFA
Ghana,Upper East,Bolgatanga,,,,Bolga,Cassava,10,2010,Wholesale,40.00,91 KG,GHS,MOFA
Ghana,Upper East,Bolgatanga,,,,Bolga,Cassava,11,2010,Wholesale,41.00,91 KG,GHS,MOFA
Ghana,Upper East,Bolgatanga,,,,Bolga,Cassava,12,2010,Wholesale,,91 KG,GHS,MOFA
Ghana,Upper East,Bolgatanga,,,,Bolga,Cassava,1,2009,Wholesale,,91 KG,GHS,MOFA
Ghana,Upper East,Bolgatanga,,,,Bolga,Cassava,2,2009,Wholesale,,91 KG,GHS,MOFA
Ghana,Upper East,Bolgatanga,,,,Bolga,Cassava,3,2009,Wholesale,,91 KG,GHS,MOFA
Ghana,Upper East,Bolgatanga,,,,Bolga,Cassava,4,2009,Wholesale,,91 KG,GHS,MOFA
Ghana,Upper East,Bolgatanga,,,,Bolga,Cassava,5,2009,Wholesale,,91 KG,GHS,MOFA
Ghana,Upper East,Bolgatanga,,,,Bolga,Cassava,6,2009,Wholesale,,91 KG,GHS,MOFA
Ghana,Upper East,Bolgatanga,,,,Bolga,Cassava,7,2009,Wholesale,23.75,91 KG,GHS,MOFA
Ghana,Upper East,Bolgatanga,,,,Bolga,Cassava,8,2009,Wholesale,80.00,91 KG,GHS,MOFA
Ghana,Upper East,Bolgatanga,,,,Bolga,Cassava,9,2009,Wholesale,37.50,91 KG,GHS,MOFA
Ghana,Upper East,Bolgatanga,,,,Bolga,Cassava,10,2009,Wholesale,17.50,91 KG,GHS,MOFA
Ghana,Upper East,Bolgatanga,,,,Bolga,Cassava,11,2009,Wholesale,10.00,91 KG,GHS,MOFA
Ghana,Upper East,Bolgatanga,,,,Bolga,Cassava,12,2009,Wholesale,10.00,91 KG,GHS,MOFA
Ghana,Upper East,Bolgatanga,,,,Bolga,Maize,1,2014,Wholesale,59.20,100 KG,GHS,MOFA
Ghana,Upper East,Bolgatanga,,,,Bolga,Maize,2,2014,Wholesale,63.50,100 KG,GHS,MOFA
Ghana,Upper East,Bolgatanga,,,,Bolga,Maize,3,2014,Wholesale,64.60,100 KG,GHS,MOFA
Ghana,Upper East,Bolgatanga,,,,Bolga,Maize,4,2014,Wholesale,67.50,100 KG,GHS,MOFA
Ghana,Upper East,Bolgatanga,,,,Bolga,Maize,5,2014,Wholesale,76.00,100 KG,GHS,MOFA
Ghana,Upper East,Bolgatanga,,,,Bolga,Maize,6,2014,Wholesale,81.25,100 KG,GHS,MOFA
Ghana,Upper East,Bolgatanga,,,,Bolga,Maize,7,2014,Wholesale,81.25,100 KG,GHS,MOFA
Ghana,Upper East,Bolgatanga,,,,Bolga,Maize,8,2014,Wholesale,80.00,100 KG,GHS,MOFA
Ghana,Upper East,Bolgatanga,,,,Bolga,Maize,9,2014,Wholesale,115.00,100 KG,GHS,MOFA
Ghana,Upper East,Bolgatanga,,,,Bolga,Maize,10,2014,Wholesale,120.00,100 KG,GHS,MOFA
Ghana,Upper East,Bolgatanga,,,,Bolga,Maize,11,2014,Wholesale,110.00,100 KG,GHS,MOFA
Ghana,Upper East,Bolgatanga,,,,Bolga,Maize,12,2014,Wholesale,120.00,100 KG,GHS,MOFA
Ghana,Upper East,Bolgatanga,,,,Bolga,Maize,1,2013,Wholesale,58.75,100 KG,GHS,MOFA
Ghana,Upper East,Bolgatanga,,,,Bolga,Maize,2,2013,Wholesale,62.50,100 KG,GHS,MOFA
Ghana,Upper East,Bolgatanga,,,,Bolga,Maize,3,2013,Wholesale,60.25,100 KG,GHS,MOFA
Ghana,Upper East,Bolgatanga,,,,Bolga,Maize,4,2013,Wholesale,58.00,100 KG,GHS,MOFA
Ghana,Upper East,Bolgatanga,,,,Bolga,Maize,5,2013,Wholesale,55.00,100 KG,GHS,MOFA
Ghana,Upper East,Bolgatanga,,,,Bolga,Maize,6,2013,Wholesale,52.00,100 KG,GHS,MOFA
Ghana,Upper East,Bolgatanga,,,,Bolga,Maize,7,2013,Wholesale,50.00,100 KG,GHS,MOFA
Ghana,Upper East,Bolgatanga,,,,Bolga,Maize,8,2013,Wholesale,52.00,100 KG,GHS,MOFA
Ghana,Upper East,Bolgatanga,,,,Bolga,Maize,9,2013,Wholesale,52.50,100 KG,GHS,MOFA
Ghana,Upper East,Bolgatanga,,,,Bolga,Maize,10,2013,Wholesale,55.00,100 KG,GHS,MOFA
Ghana,Upper East,Bolgatanga,,,,Bolga,Maize,11,2013,Wholesale,55.00,100 KG,GHS,MOFA
Ghana,Upper East,Bolgatanga,,,,Bolga,Maize,12,2013,Wholesale,56.75,100 KG,GHS,MOFA
Ghana,Upper East,Bolgatanga,,,,Bolga,Maize,1,2012,Wholesale,67.00,100 KG,GHS,MOFA
Ghana,Upper East,Bolgatanga,,,,Bolga,Maize,2,2012,Wholesale,66.00,100 KG,GHS,MOFA
Ghana,Upper East,Bolgatanga,,,,Bolga,Maize,3,2012,Wholesale,68.00,100 KG,GHS,MOFA
Ghana,Upper East,Bolgatanga,,,,Bolga,Maize,4,2012,Wholesale,,100 KG,GHS,MOFA
Ghana,Upper East,Bolgatanga,,,,Bolga,Maize,5,2012,Wholesale,73.75,100 KG,GHS,MOFA
Ghana,Upper East,Bolgatanga,,,,Bolga,Maize,6,2012,Wholesale,75.60,100 KG,GHS,MOFA
Ghana,Upper East,Bolgatanga,,,,Bolga,Maize,7,2012,Wholesale,70.00,100 KG,GHS,MOFA
Ghana,Upper East,Bolgatanga,,,,Bolga,Maize,8,2012,Wholesale,69.25,100 KG,GHS,MOFA
Ghana,Upper East,Bolgatanga,,,,Bolga,Maize,9,2012,Wholesale,70.00,100 KG,GHS,MOFA
Ghana,Upper East,Bolgatanga,,,,Bolga,Maize,10,2012,Wholesale,52.50,100 KG,GHS,MOFA
Ghana,Upper East,Bolgatanga,,,,Bolga,Maize,11,2012,Wholesale,53.00,100 KG,GHS,MOFA
Ghana,Upper East,Bolgatanga,,,,Bolga,Maize,12,2012,Wholesale,53.20,100 KG,GHS,MOFA
Ghana,Upper East,Bolgatanga,,,,Bolga,Maize,1,2011,Wholesale,40.40,100 KG,GHS,MOFA
Ghana,Upper East,Bolgatanga,,,,Bolga,Maize,2,2011,Wholesale,33.60,100 KG,GHS,MOFA
Ghana,Upper East,Bolgatanga,,,,Bolga,Maize,3,2011,Wholesale,41.50,100 KG,GHS,MOFA
Ghana,Upper East,Bolgatanga,,,,Bolga,Maize,4,2011,Wholesale,42.00,100 KG,GHS,MOFA
Ghana,Upper East,Bolgatanga,,,,Bolga,Maize,5,2011,Wholesale,50.00,100 KG,GHS,MOFA
Ghana,Upper East,Bolgatanga,,,,Bolga,Maize,6,2011,Wholesale,57.50,100 KG,GHS,MOFA
Ghana,Upper East,Bolgatanga,,,,Bolga,Maize,7,2011,Wholesale,55.75,100 KG,GHS,MOFA
Ghana,Upper East,Bolgatanga,,,,Bolga,Maize,8,2011,Wholesale,60.00,100 KG,GHS,MOFA
Ghana,Upper East,Bolgatanga,,,,Bolga,Maize,9,2011,Wholesale,57.50,100 KG,GHS,MOFA
Ghana,Upper East,Bolgatanga,,,,Bolga,Maize,10,2011,Wholesale,53.75,100 KG,GHS,MOFA
Ghana,Upper East,Bolgatanga,,,,Bolga,Maize,11,2011,Wholesale,50.00,100 KG,GHS,MOFA
Ghana,Upper East,Bolgatanga,,,,Bolga,Maize,12,2011,Wholesale,68.80,100 KG,GHS,MOFA
Ghana,Upper East,Bolgatanga,,,,Bolga,Maize,1,2010,Wholesale,40.00,100 KG,GHS,MOFA
Ghana,Upper East,Bolgatanga,,,,Bolga,Maize,2,2010,Wholesale,40.50,100 KG,GHS,MOFA
Ghana,Upper East,Bolgatanga,,,,Bolga,Maize,3,2010,Wholesale,41.50,100 KG,GHS,MOFA
Ghana,Upper East,Bolgatanga,,,,Bolga,Maize,4,2010,Wholesale,42.00,100 KG,GHS,MOFA
Ghana,Upper East,Bolgatanga,,,,Bolga,Maize,5,2010,Wholesale,42.00,100 KG,GHS,MOFA
Ghana,Upper East,Bolgatanga,,,,Bolga,Maize,6,2010,Wholesale,42.00,100 KG,GHS,MOFA
Ghana,Upper East,Bolgatanga,,,,Bolga,Maize,7,2010,Wholesale,38.40,100 KG,GHS,MOFA
Ghana,Upper East,Bolgatanga,,,,Bolga,Maize,8,2010,Wholesale,36.00,100 KG,GHS,MOFA
Ghana,Upper East,Bolgatanga,,,,Bolga,Maize,9,2010,Wholesale,36.00,100 KG,GHS,MOFA
Ghana,Upper East,Bolgatanga,,,,Bolga,Maize,10,2010,Wholesale,32.40,100 KG,GHS,MOFA
Ghana,Upper East,Bolgatanga,,,,Bolga,Maize,11,2010,Wholesale,36.00,100 KG,GHS,MOFA
Ghana,Upper East,Bolgatanga,,,,Bolga,Maize,12,2010,Wholesale,,100 KG,GHS,MOFA
Ghana,Upper East,Bolgatanga,,,,Bolga,Maize,1,2009,Wholesale,45.40,100 KG,GHS,MOFA
Ghana,Upper East,Bolgatanga,,,,Bolga,Maize,2,2009,Wholesale,51.00,100 KG,GHS,MOFA
Ghana,Upper East,Bolgatanga,,,,Bolga,Maize,3,2009,Wholesale,52.50,100 KG,GHS,MOFA
Ghana,Upper East,Bolgatanga,,,,Bolga,Maize,4,2009,Wholesale,47.25,100 KG,GHS,MOFA
Ghana,Upper East,Bolgatanga,,,,Bolga,Maize,5,2009,Wholesale,51.00,100 KG,GHS,MOFA
Ghana,Upper East,Bolgatanga,,,,Bolga,Maize,6,2009,Wholesale,65.80,100 KG,GHS,MOFA
Ghana,Upper East,Bolgatanga,,,,Bolga,Maize,7,2009,Wholesale,65.50,100 KG,GHS,MOFA
Ghana,Upper East,Bolgatanga,,,,Bolga,Maize,8,2009,Wholesale,58.80,100 KG,GHS,MOFA
Ghana,Upper East,Bolgatanga,,,,Bolga,Maize,9,2009,Wholesale,44.75,100 KG,GHS,MOFA
Ghana,Upper East,Bolgatanga,,,,Bolga,Maize,10,2009,Wholesale,38.00,100 KG,GHS,MOFA
Ghana,Upper East,Bolgatanga,,,,Bolga,Maize,11,2009,Wholesale,40.00,100 KG,GHS,MOFA
Ghana,Upper East,Bolgatanga,,,,Bolga,Maize,12,2009,Wholesale,40.00,100 KG,GHS,MOFA
Ghana,Upper East,Bolgatanga,,,,Bolga,Maize,1,2008,Wholesale,31.00,100 KG,GHS,MOFA
Ghana,Upper East,Bolgatanga,,,,Bolga,Maize,2,2008,Wholesale,33.50,100 KG,GHS,MOFA
Ghana,Upper East,Bolgatanga,,,,Bolga,Maize,3,2008,Wholesale,38.33,100 KG,GHS,MOFA
Ghana,Upper East,Bolgatanga,,,,Bolga,Maize,4,2008,Wholesale,39.04,100 KG,GHS,MOFA
Ghana,Upper East,Bolgatanga,,,,Bolga,Maize,5,2008,Wholesale,50.00,100 KG,GHS,MOFA
Ghana,Upper East,Bolgatanga,,,,Bolga,Maize,6,2008,Wholesale,54.00,100 KG,GHS,MOFA
Ghana,Upper East,Bolgatanga,,,,Bolga,Maize,7,2008,Wholesale,60.00,100 KG,GHS,MOFA
Ghana,Upper East,Bolgatanga,,,,Bolga,Maize,8,2008,Wholesale,56.50,100 KG,GHS,MOFA
Ghana,Upper East,Bolgatanga,,,,Bolga,Maize,9,2008,Wholesale,38.75,100 KG,GHS,MOFA
Ghana,Upper East,Bolgatanga,,,,Bolga,Maize,10,2008,Wholesale,42.25,100 KG,GHS,MOFA
Ghana,Upper East,Bolgatanga,,,,Bolga,Maize,11,2008,Wholesale,43.40,100 KG,GHS,MOFA
Ghana,Upper East,Bolgatanga,,,,Bolga,Maize,12,2008,Wholesale,44.00,100 KG,GHS,MOFA
Ghana,Upper East,Bolgatanga,,,,Bolga,Plantains (apentu),1,2014,Wholesale,,Bunch,GHS,MOFA
Ghana,Upper East,Bolgatanga,,,,Bolga,Plantains (apentu),2,2014,Wholesale,16.00,Bunch,GHS,MOFA
Ghana,Upper East,Bolgatanga,,,,Bolga,Plantains (apentu),3,2014,Wholesale,13.60,Bunch,GHS,MOFA
Ghana,Upper East,Bolgatanga,,,,Bolga,Plantains (apentu),4,2014,Wholesale,12.00,Bunch,GHS,MOFA
Ghana,Upper East,Bolgatanga,,,,Bolga,Plantains (apentu),5,2014,Wholesale,12.60,Bunch,GHS,MOFA
Ghana,Upper East,Bolgatanga,,,,Bolga,Plantains (apentu),6,2014,Wholesale,15.75,Bunch,GHS,MOFA
Ghana,Upper East,Bolgatanga,,,,Bolga,Plantains (apentu),7,2014,Wholesale,15.75,Bunch,GHS,MOFA
Ghana,Upper East,Bolgatanga,,,,Bolga,Plantains (apentu),8,2014,Wholesale,15.00,Bunch,GHS,MOFA
Ghana,Upper East,Bolgatanga,,,,Bolga,Plantains (apentu),9,2014,Wholesale,19.25,Bunch,GHS,MOFA
Ghana,Upper East,Bolgatanga,,,,Bolga,Plantains (apentu),10,2014,Wholesale,18.00,Bunch,GHS,MOFA
Ghana,Upper East,Bolgatanga,,,,Bolga,Plantains (apentu),11,2014,Wholesale,18.00,Bunch,GHS,MOFA
Ghana,Upper East,Bolgatanga,,,,Bolga,Plantains (apentu),12,2014,Wholesale,18.00,Bunch,GHS,MOFA
Ghana,Upper East,Bolgatanga,,,,Bolga,Plantains (apentu),1,2013,Wholesale,10.00,Bunch,GHS,MOFA
Ghana,Upper East,Bolgatanga,,,,Bolga,Plantains (apentu),2,2013,Wholesale,10.00,Bunch,GHS,MOFA
Ghana,Upper East,Bolgatanga,,,,Bolga,Plantains (apentu),3,2013,Wholesale,11.00,Bunch,GHS,MOFA
Ghana,Upper East,Bolgatanga,,,,Bolga,Plantains (apentu),4,2013,Wholesale,12.00,Bunch,GHS,MOFA
Ghana,Upper East,Bolgatanga,,,,Bolga,Plantains (apentu),5,2013,Wholesale,11.00,Bunch,GHS,MOFA
Ghana,Upper East,Bolgatanga,,,,Bolga,Plantains (apentu),6,2013,Wholesale,24.00,Bunch,GHS,MOFA
Ghana,Upper East,Bolgatanga,,,,Bolga,Plantains (apentu),7,2013,Wholesale,20.00,Bunch,GHS,MOFA
Ghana,Upper East,Bolgatanga,,,,Bolga,Plantains (apentu),8,2013,Wholesale,25.00,Bunch,GHS,MOFA
Ghana,Upper East,Bolgatanga,,,,Bolga,Plantains (apentu),9,2013,Wholesale,25.00,Bunch,GHS,MOFA
Ghana,Upper East,Bolgatanga,,,,Bolga,Plantains (apentu),10,2013,Wholesale,19.50,Bunch,GHS,MOFA
Ghana,Upper East,Bolgatanga,,,,Bolga,Plantains (apentu),11,2013,Wholesale,18.00,Bunch,GHS,MOFA
Ghana,Upper East,Bolgatanga,,,,Bolga,Plantains (apentu),12,2013,Wholesale,18.00,Bunch,GHS,MOFA
Ghana,Upper East,Bolgatanga,,,,Bolga,Plantains (apentu),1,2012,Wholesale,8.50,Bunch,GHS,MOFA
Ghana,Upper East,Bolgatanga,,,,Bolga,Plantains (apentu),2,2012,Wholesale,10.00,Bunch,GHS,MOFA
Ghana,Upper East,Bolgatanga,,,,Bolga,Plantains (apentu),3,2012,Wholesale,12.00,Bunch,GHS,MOFA
Ghana,Upper East,Bolgatanga,,,,Bolga,Plantains (apentu),4,2012,Wholesale,,Bunch,GHS,MOFA
Ghana,Upper East,Bolgatanga,,,,Bolga,Plantains (apentu),5,2012,Wholesale,16.00,Bunch,GHS,MOFA
Ghana,Upper East,Bolgatanga,,,,Bolga,Plantains (apentu),6,2012,Wholesale,18.80,Bunch,GHS,MOFA
Ghana,Upper East,Bolgatanga,,,,Bolga,Plantains (apentu),7,2012,Wholesale,20.00,Bunch,GHS,MOFA
Ghana,Upper East,Bolgatanga,,,,Bolga,Plantains (apentu),8,2012,Wholesale,22.25,Bunch,GHS,MOFA
Ghana,Upper East,Bolgatanga,,,,Bolga,Plantains (apentu),9,2012,Wholesale,21.00,Bunch,GHS,MOFA
Ghana,Upper East,Bolgatanga,,,,Bolga,Plantains (apentu),10,2012,Wholesale,13.50,Bunch,GHS,MOFA
Ghana,Upper East,Bolgatanga,,,,Bolga,Plantains (apentu),11,2012,Wholesale,9.50,Bunch,GHS,MOFA
Ghana,Upper East,Bolgatanga,,,,Bolga,Plantains (apentu),12,2012,Wholesale,8.80,Bunch,GHS,MOFA
Ghana,Upper East,Bolgatanga,,,,Bolga,Plantains (apentu),1,2011,Wholesale,,Bunch,GHS,MOFA
Ghana,Upper East,Bolgatanga,,,,Bolga,Plantains (apentu),2,2011,Wholesale,4.00,Bunch,GHS,MOFA
Ghana,Upper East,Bolgatanga,,,,Bolga,Plantains (apentu),3,2011,Wholesale,8.00,Bunch,GHS,MOFA
Ghana,Upper East,Bolgatanga,,,,Bolga,Plantains (apentu),4,2011,Wholesale,9.00,Bunch,GHS,MOFA
Ghana,Upper East,Bolgatanga,,,,Bolga,Plantains (apentu),5,2011,Wholesale,12.00,Bunch,GHS,MOFA
Ghana,Upper East,Bolgatanga,,,,Bolga,Plantains (apentu),6,2011,Wholesale,10.00,Bunch,GHS,MOFA
Ghana,Upper East,Bolgatanga,,,,Bolga,Plantains (apentu),7,2011,Wholesale,12.00,Bunch,GHS,MOFA
Ghana,Upper East,Bolgatanga,,,,Bolga,Plantains (apentu),8,2011,Wholesale,12.00,Bunch,GHS,MOFA
Ghana,Upper East,Bolgatanga,,,,Bolga,Plantains (apentu),9,2011,Wholesale,9.00,Bunch,GHS,MOFA
Ghana,Upper East,Bolgatanga,,,,Bolga,Plantains (apentu),10,2011,Wholesale,8.00,Bunch,GHS,MOFA
Ghana,Upper East,Bolgatanga,,,,Bolga,Plantains (apentu),11,2011,Wholesale,7.50,Bunch,GHS,MOFA
Ghana,Upper East,Bolgatanga,,,,Bolga,Plantains (apentu),12,2011,Wholesale,8.00,Bunch,GHS,MOFA
Ghana,Upper East,Bolgatanga,,,,Bolga,Plantains (apentu),1,2010,Wholesale,13.00,Bunch,GHS,MOFA
Ghana,Upper East,Bolgatanga,,,,Bolga,Plantains (apentu),2,2010,Wholesale,15.00,Bunch,GHS,MOFA
Ghana,Upper East,Bolgatanga,,,,Bolga,Plantains (apentu),3,2010,Wholesale,,Bunch,GHS,MOFA
Ghana,Upper East,Bolgatanga,,,,Bolga,Plantains (apentu),4,2010,Wholesale,,Bunch,GHS,MOFA
Ghana,Upper East,Bolgatanga,,,,Bolga,Plantains (apentu),5,2010,Wholesale,,Bunch,GHS,MOFA
Ghana,Upper East,Bolgatanga,,,,Bolga,Plantains (apentu),6,2010,Wholesale,,Bunch,GHS,MOFA
Ghana,Upper East,Bolgatanga,,,,Bolga,Plantains (apentu),7,2010,Wholesale,,Bunch,GHS,MOFA
Ghana,Upper East,Bolgatanga,,,,Bolga,Plantains (apentu),8,2010,Wholesale,,Bunch,GHS,MOFA
Ghana,Upper East,Bolgatanga,,,,Bolga,Plantains (apentu),9,2010,Wholesale,,Bunch,GHS,MOFA
Ghana,Upper East,Bolgatanga,,,,Bolga,Plantains (apentu),10,2010,Wholesale,,Bunch,GHS,MOFA
Ghana,Upper East,Bolgatanga,,,,Bolga,Plantains (apentu),11,2010,Wholesale,,Bunch,GHS,MOFA
Ghana,Upper East,Bolgatanga,,,,Bolga,Plantains (apentu),12,2010,Wholesale,,Bunch,GHS,MOFA
Ghana,Upper East,Bolgatanga,,,,Bolga,Plantains (apentu),1,2009,Wholesale,9.00,Bunch,GHS,MOFA
Ghana,Upper East,Bolgatanga,,,,Bolga,Plantains (apentu),2,2009,Wholesale,9.00,Bunch,GHS,MOFA
Ghana,Upper East,Bolgatanga,,,,Bolga,Plantains (apentu),3,2009,Wholesale,,Bunch,GHS,MOFA
Ghana,Upper East,Bolgatanga,,,,Bolga,Plantains (apentu),4,2009,Wholesale,9.00,Bunch,GHS,MOFA
Ghana,Upper East,Bolgatanga,,,,Bolga,Plantains (apentu),5,2009,Wholesale,,Bunch,GHS,MOFA
Ghana,Upper East,Bolgatanga,,,,Bolga,Plantains (apentu),6,2009,Wholesale,8.00,Bunch,GHS,MOFA
Ghana,Upper East,Bolgatanga,,,,Bolga,Plantains (apentu),7,2009,Wholesale,10.00,Bunch,GHS,MOFA
Ghana,Upper East,Bolgatanga,,,,Bolga,Plantains (apentu),8,2009,Wholesale,18.40,Bunch,GHS,MOFA
Ghana,Upper East,Bolgatanga,,,,Bolga,Plantains (apentu),9,2009,Wholesale,16.50,Bunch,GHS,MOFA
Ghana,Upper East,Bolgatanga,,,,Bolga,Plantains (apentu),10,2009,Wholesale,17.00,Bunch,GHS,MOFA
Ghana,Upper East,Bolgatanga,,,,Bolga,Plantains (apentu),11,2009,Wholesale,14.00,Bunch,GHS,MOFA
Ghana,Upper East,Bolgatanga,,,,Bolga,Plantains (apentu),12,2009,Wholesale,14.00,Bunch,GHS,MOFA
Ghana,Upper East,Bolgatanga,,,,Bolga,Plantains (apentu),1,2008,Wholesale,,Bunch,GHS,MOFA
Ghana,Upper East,Bolgatanga,,,,Bolga,Plantains (apentu),2,2008,Wholesale,,Bunch,GHS,MOFA
Ghana,Upper East,Bolgatanga,,,,Bolga,Plantains (apentu),3,2008,Wholesale,,Bunch,GHS,MOFA
Ghana,Upper East,Bolgatanga,,,,Bolga,Plantains (apentu),4,2008,Wholesale,,Bunch,GHS,MOFA
Ghana,Upper East,Bolgatanga,,,,Bolga,Plantains (apentu),5,2008,Wholesale,,Bunch,GHS,MOFA
Ghana,Upper East,Bolgatanga,,,,Bolga,Plantains (apentu),6,2008,Wholesale,,Bunch,GHS,MOFA
Ghana,Upper East,Bolgatanga,,,,Bolga,Plantains (apentu),7,2008,Wholesale,,Bunch,GHS,MOFA
Ghana,Upper East,Bolgatanga,,,,Bolga,Plantains (apentu),8,2008,Wholesale,,Bunch,GHS,MOFA
Ghana,Upper East,Bolgatanga,,,,Bolga,Plantains (apentu),9,2008,Wholesale,,Bunch,GHS,MOFA
Ghana,Upper East,Bolgatanga,,,,Bolga,Plantains (apentu),10,2008,Wholesale,,Bunch,GHS,MOFA
Ghana,Upper East,Bolgatanga,,,,Bolga,Plantains (apentu),11,2008,Wholesale,,Bunch,GHS,MOFA
Ghana,Upper East,Bolgatanga,,,,Bolga,Plantains (apentu),12,2008,Wholesale,7.00,Bunch,GHS,MOFA
Ghana,Upper East,Bolgatanga,,,,Bolga,Rice (imported),1,2014,Wholesale,,50 KG,GHS,MOFA
Ghana,Upper East,Bolgatanga,,,,Bolga,Rice (imported),2,2014,Wholesale,,50 KG,GHS,MOFA
Ghana,Upper East,Bolgatanga,,,,Bolga,Rice (imported),3,2014,Wholesale,,50 KG,GHS,MOFA
Ghana,Upper East,Bolgatanga,,,,Bolga,Rice (imported),4,2014,Wholesale,140.00,50 KG,GHS,MOFA
Ghana,Upper East,Bolgatanga,,,,Bolga,Rice (imported),5,2014,Wholesale,129.20,50 KG,GHS,MOFA
Ghana,Upper East,Bolgatanga,,,,Bolga,Rice (imported),6,2014,Wholesale,160.50,50 KG,GHS,MOFA
Ghana,Upper East,Bolgatanga,,,,Bolga,Rice (imported),7,2014,Wholesale,160.50,50 KG,GHS,MOFA
Ghana,Upper East,Bolgatanga,,,,Bolga,Rice (imported),8,2014,Wholesale,166.00,50 KG,GHS,MOFA
Ghana,Upper East,Bolgatanga,,,,Bolga,Rice (imported),9,2014,Wholesale,191.50,50 KG,GHS,MOFA
Ghana,Upper East,Bolgatanga,,,,Bolga,Rice (imported),10,2014,Wholesale,200.00,50 KG,GHS,MOFA
Ghana,Upper East,Bolgatanga,,,,Bolga,Rice (imported),11,2014,Wholesale,200.00,50 KG,GHS,MOFA
Ghana,Upper East,Bolgatanga,,,,Bolga,Rice (imported),12,2014,Wholesale,200.00,50 KG,GHS,MOFA
Ghana,Upper East,Bolgatanga,,,,Bolga,Rice (local),1,2014,Wholesale,67.00,50 KG,GHS,MOFA
Ghana,Upper East,Bolgatanga,,,,Bolga,Rice (local),2,2014,Wholesale,73.75,50 KG,GHS,MOFA
Ghana,Upper East,Bolgatanga,,,,Bolga,Rice (local),3,2014,Wholesale,78.00,50 KG,GHS,MOFA
Ghana,Upper East,Bolgatanga,,,,Bolga,Rice (local),4,2014,Wholesale,85.00,50 KG,GHS,MOFA
Ghana,Upper East,Bolgatanga,,,,Bolga,Rice (local),5,2014,Wholesale,86.00,50 KG,GHS,MOFA
Ghana,Upper East,Bolgatanga,,,,Bolga,Rice (local),6,2014,Wholesale,,50 KG,GHS,MOFA
Ghana,Upper East,Bolgatanga,,,,Bolga,Rice (local),7,2014,Wholesale,,50 KG,GHS,MOFA
Ghana,Upper East,Bolgatanga,,,,Bolga,Rice (local),8,2014,Wholesale,,50 KG,GHS,MOFA
Ghana,Upper East,Bolgatanga,,,,Bolga,Rice (local),9,2014,Wholesale,,50 KG,GHS,MOFA
Ghana,Upper East,Bolgatanga,,,,Bolga,Rice (local),10,2014,Wholesale,,50 KG,GHS,MOFA
Ghana,Upper East,Bolgatanga,,,,Bolga,Rice (local),11,2014,Wholesale,,50 KG,GHS,MOFA
Ghana,Upper East,Bolgatanga,,,,Bolga,Rice (local),12,2014,Wholesale,,50 KG,GHS,MOFA
Ghana,Upper East,Bolgatanga,,,,Bolga,Rice (local),1,2013,Wholesale,71.50,50 KG,GHS,MOFA
Ghana,Upper East,Bolgatanga,,,,Bolga,Rice (local),2,2013,Wholesale,75.00,50 KG,GHS,MOFA
Ghana,Upper East,Bolgatanga,,,,Bolga,Rice (local),3,2013,Wholesale,87.50,50 KG,GHS,MOFA
Ghana,Upper East,Bolgatanga,,,,Bolga,Rice (local),4,2013,Wholesale,71.00,50 KG,GHS,MOFA
Ghana,Upper East,Bolgatanga,,,,Bolga,Rice (local),5,2013,Wholesale,71.50,50 KG,GHS,MOFA
Ghana,Upper East,Bolgatanga,,,,Bolga,Rice (local),6,2013,Wholesale,78.00,50 KG,GHS,MOFA
Ghana,Upper East,Bolgatanga,,,,Bolga,Rice (local),7,2013,Wholesale,70.00,50 KG,GHS,MOFA
Ghana,Upper East,Bolgatanga,,,,Bolga,Rice (local),8,2013,Wholesale,73.00,50 KG,GHS,MOFA
Ghana,Upper East,Bolgatanga,,,,Bolga,Rice (local),9,2013,Wholesale,74.00,50 KG,GHS,MOFA
Ghana,Upper East,Bolgatanga,,,,Bolga,Rice (local),10,2013,Wholesale,68.75,50 KG,GHS,MOFA
Ghana,Upper East,Bolgatanga,,,,Bolga,Rice (local),11,2013,Wholesale,65.00,50 KG,GHS,MOFA
Ghana,Upper East,Bolgatanga,,,,Bolga,Rice (local),12,2013,Wholesale,48.75,50 KG,GHS,MOFA
Ghana,Upper East,Bolgatanga,,,,Bolga,Rice (local),1,2012,Wholesale,70.00,50 KG,GHS,MOFA
Ghana,Upper East,Bolgatanga,,,,Bolga,Rice (local),2,2012,Wholesale,70.00,50 KG,GHS,MOFA
Ghana,Upper East,Bolgatanga,,,,Bolga,Rice (local),3,2012,Wholesale,70.60,50 KG,GHS,MOFA
Ghana,Upper East,Bolgatanga,,,,Bolga,Rice (local),4,2012,Wholesale,73.25,50 KG,GHS,MOFA
Ghana,Upper East,Bolgatanga,,,,Bolga,Rice (local),5,2012,Wholesale,71.25,50 KG,GHS,MOFA
Ghana,Upper East,Bolgatanga,,,,Bolga,Rice (local),6,2012,Wholesale,75.60,50 KG,GHS,MOFA
Ghana,Upper East,Bolgatanga,,,,Bolga,Rice (local),7,2012,Wholesale,75.00,50 KG,GHS,MOFA
Ghana,Upper East,Bolgatanga,,,,Bolga,Rice (local),8,2012,Wholesale,73.00,50 KG,GHS,MOFA
Ghana,Upper East,Bolgatanga,,,,Bolga,Rice (local),9,2012,Wholesale,67.75,50 KG,GHS,MOFA
Ghana,Upper East,Bolgatanga,,,,Bolga,Rice (local),10,2012,Wholesale,74.00,50 KG,GHS,MOFA
Ghana,Upper East,Bolgatanga,,,,Bolga,Rice (local),11,2012,Wholesale,72.50,50 KG,GHS,MOFA
Ghana,Upper East,Bolgatanga,,,,Bolga,Rice (local),12,2012,Wholesale,67.60,50 KG,GHS,MOFA
Ghana,Upper East,Bolgatanga,,,,Bolga,Rice (local),1,2011,Wholesale,51.67,50 KG,GHS,MOFA
Ghana,Upper East,Bolgatanga,,,,Bolga,Rice (local),2,2011,Wholesale,40.00,50 KG,GHS,MOFA
Ghana,Upper East,Bolgatanga,,,,Bolga,Rice (local),3,2011,Wholesale,50.00,50 KG,GHS,MOFA
Ghana,Upper East,Bolgatanga,,,,Bolga,Rice (local),4,2011,Wholesale,56.25,50 KG,GHS,MOFA
Ghana,Upper East,Bolgatanga,,,,Bolga,Rice (local),5,2011,Wholesale,65.00,50 KG,GHS,MOFA
Ghana,Upper East,Bolgatanga,,,,Bolga,Rice (local),6,2011,Wholesale,68.75,50 KG,GHS,MOFA
Ghana,Upper East,Bolgatanga,,,,Bolga,Rice (local),7,2011,Wholesale,60.00,50 KG,GHS,MOFA
Ghana,Upper East,Bolgatanga,,,,Bolga,Rice (local),8,2011,Wholesale,68.33,50 KG,GHS,MOFA
Ghana,Upper East,Bolgatanga,,,,Bolga,Rice (local),9,2011,Wholesale,65.00,50 KG,GHS,MOFA
Ghana,Upper East,Bolgatanga,,,,Bolga,Rice (local),10,2011,Wholesale,70.75,50 KG,GHS,MOFA
Ghana,Upper East,Bolgatanga,,,,Bolga,Rice (local),11,2011,Wholesale,67.50,50 KG,GHS,MOFA
Ghana,Upper East,Bolgatanga,,,,Bolga,Rice (local),12,2011,Wholesale,70.00,50 KG,GHS,MOFA
Ghana,Upper East,Bolgatanga,,,,Bolga,Rice (local),1,2010,Wholesale,59.00,50 KG,GHS,MOFA
Ghana,Upper East,Bolgatanga,,,,Bolga,Rice (local),2,2010,Wholesale,55.00,50 KG,GHS,MOFA
Ghana,Upper East,Bolgatanga,,,,Bolga,Rice (local),3,2010,Wholesale,50.00,50 KG,GHS,MOFA
Ghana,Upper East,Bolgatanga,,,,Bolga,Rice (local),4,2010,Wholesale,50.00,50 KG,GHS,MOFA
Ghana,Upper East,Bolgatanga,,,,Bolga,Rice (local),5,2010,Wholesale,50.00,50 KG,GHS,MOFA
Ghana,Upper East,Bolgatanga,,,,Bolga,Rice (local),6,2010,Wholesale,50.00,50 KG,GHS,MOFA
Ghana,Upper East,Bolgatanga,,,,Bolga,Rice (local),7,2010,Wholesale,50.00,50 KG,GHS,MOFA
Ghana,Upper East,Bolgatanga,,,,Bolga,Rice (local),8,2010,Wholesale,50.00,50 KG,GHS,MOFA
Ghana,Upper East,Bolgatanga,,,,Bolga,Rice (local),9,2010,Wholesale,50.00,50 KG,GHS,MOFA
Ghana,Upper East,Bolgatanga,,,,Bolga,Rice (local),10,2010,Wholesale,50.00,50 KG,GHS,MOFA
Ghana,Upper East,Bolgatanga,,,,Bolga,Rice (local),11,2010,Wholesale,50.25,50 KG,GHS,MOFA
Ghana,Upper East,Bolgatanga,,,,Bolga,Rice (local),12,2010,Wholesale,,50 KG,GHS,MOFA
Ghana,Upper East,Bolgatanga,,,,Bolga,Rice (local),1,2009,Wholesale,50.00,50 KG,GHS,MOFA
Ghana,Upper East,Bolgatanga,,,,Bolga,Rice (local),2,2009,Wholesale,50.00,50 KG,GHS,MOFA
Ghana,Upper East,Bolgatanga,,,,Bolga,Rice (local),3,2009,Wholesale,50.25,50 KG,GHS,MOFA
Ghana,Upper East,Bolgatanga,,,,Bolga,Rice (local),4,2009,Wholesale,50.00,50 KG,GHS,MOFA
Ghana,Upper East,Bolgatanga,,,,Bolga,Rice (local),5,2009,Wholesale,50.00,50 KG,GHS,MOFA
Ghana,Upper East,Bolgatanga,,,,Bolga,Rice (local),6,2009,Wholesale,55.00,50 KG,GHS,MOFA
Ghana,Upper East,Bolgatanga,,,,Bolga,Rice (local),7,2009,Wholesale,52.50,50 KG,GHS,MOFA
Ghana,Upper East,Bolgatanga,,,,Bolga,Rice (local),8,2009,Wholesale,55.00,50 KG,GHS,MOFA
Ghana,Upper East,Bolgatanga,,,,Bolga,Rice (local),9,2009,Wholesale,53.50,50 KG,GHS,MOFA
Ghana,Upper East,Bolgatanga,,,,Bolga,Rice (local),10,2009,Wholesale,49.25,50 KG,GHS,MOFA
Ghana,Upper East,Bolgatanga,,,,Bolga,Rice (local),11,2009,Wholesale,50.00,50 KG,GHS,MOFA
Ghana,Upper East,Bolgatanga,,,,Bolga,Rice (local),12,2009,Wholesale,50.00,50 KG,GHS,MOFA
Ghana,Upper East,Bolgatanga,,,,Bolga,Rice (local),1,2008,Wholesale,35.50,50 KG,GHS,MOFA
Ghana,Upper East,Bolgatanga,,,,Bolga,Rice (local),2,2008,Wholesale,35.00,50 KG,GHS,MOFA
Ghana,Upper East,Bolgatanga,,,,Bolga,Rice (local),3,2008,Wholesale,41.67,50 KG,GHS,MOFA
Ghana,Upper East,Bolgatanga,,,,Bolga,Rice (local),4,2008,Wholesale,45.00,50 KG,GHS,MOFA
Ghana,Upper East,Bolgatanga,,,,Bolga,Rice (local),5,2008,Wholesale,46.88,50 KG,GHS,MOFA
Ghana,Upper East,Bolgatanga,,,,Bolga,Rice (local),6,2008,Wholesale,50.62,50 KG,GHS,MOFA
Ghana,Upper East,Bolgatanga,,,,Bolga,Rice (local),7,2008,Wholesale,53.50,50 KG,GHS,MOFA
Ghana,Upper East,Bolgatanga,,,,Bolga,Rice (local),8,2008,Wholesale,57.39,50 KG,GHS,MOFA
Ghana,Upper East,Bolgatanga,,,,Bolga,Rice (local),9,2008,Wholesale,64.50,50 KG,GHS,MOFA
Ghana,Upper East,Bolgatanga,,,,Bolga,Rice (local),10,2008,Wholesale,69.00,50 KG,GHS,MOFA
Ghana,Upper East,Bolgatanga,,,,Bolga,Rice (local),11,2008,Wholesale,58.60,50 KG,GHS,MOFA
Ghana,Upper East,Bolgatanga,,,,Bolga,Rice (local),12,2008,Wholesale,50.00,50 KG,GHS,MOFA
Ghana,Upper East,Bolgatanga,,,,Bolga,Yam,1,2014,Wholesale,180.00,100 Tubers,GHS,MOFA
Ghana,Upper East,Bolgatanga,,,,Bolga,Yam,2,2014,Wholesale,187.50,100 Tubers,GHS,MOFA
Ghana,Upper East,Bolgatanga,,,,Bolga,Yam,3,2014,Wholesale,200.00,100 Tubers,GHS,MOFA
Ghana,Upper East,Bolgatanga,,,,Bolga,Yam,4,2014,Wholesale,190.00,100 Tubers,GHS,MOFA
Ghana,Upper East,Bolgatanga,,,,Bolga,Yam,5,2014,Wholesale,202.00,100 Tubers,GHS,MOFA
Ghana,Upper East,Bolgatanga,,,,Bolga,Yam,6,2014,Wholesale,262.50,100 Tubers,GHS,MOFA
Ghana,Upper East,Bolgatanga,,,,Bolga,Yam,7,2014,Wholesale,262.50,100 Tubers,GHS,MOFA
Ghana,Upper East,Bolgatanga,,,,Bolga,Yam,8,2014,Wholesale,250.00,100 Tubers,GHS,MOFA
Ghana,Upper East,Bolgatanga,,,,Bolga,Yam,9,2014,Wholesale,190.00,100 Tubers,GHS,MOFA
Ghana,Upper East,Bolgatanga,,,,Bolga,Yam,10,2014,Wholesale,150.00,100 Tubers,GHS,MOFA
Ghana,Upper East,Bolgatanga,,,,Bolga,Yam,11,2014,Wholesale,165.00,100 Tubers,GHS,MOFA
Ghana,Upper East,Bolgatanga,,,,Bolga,Yam,12,2014,Wholesale,150.00,100 Tubers,GHS,MOFA
Ghana,Upper East,Bolgatanga,,,,Bolga,Yam,1,2013,Wholesale,170.00,100 Tubers,GHS,MOFA
Ghana,Upper East,Bolgatanga,,,,Bolga,Yam,2,2013,Wholesale,197.50,100 Tubers,GHS,MOFA
Ghana,Upper East,Bolgatanga,,,,Bolga,Yam,3,2013,Wholesale,202.50,100 Tubers,GHS,MOFA
Ghana,Upper East,Bolgatanga,,,,Bolga,Yam,4,2013,Wholesale,238.00,100 Tubers,GHS,MOFA
Ghana,Upper East,Bolgatanga,,,,Bolga,Yam,5,2013,Wholesale,255.00,100 Tubers,GHS,MOFA
Ghana,Upper East,Bolgatanga,,,,Bolga,Yam,6,2013,Wholesale,204.00,100 Tubers,GHS,MOFA
Ghana,Upper East,Bolgatanga,,,,Bolga,Yam,7,2013,Wholesale,230.00,100 Tubers,GHS,MOFA
Ghana,Upper East,Bolgatanga,,,,Bolga,Yam,8,2013,Wholesale,188.00,100 Tubers,GHS,MOFA
Ghana,Upper East,Bolgatanga,,,,Bolga,Yam,9,2013,Wholesale,155.00,100 Tubers,GHS,MOFA
Ghana,Upper East,Bolgatanga,,,,Bolga,Yam,10,2013,Wholesale,140.00,100 Tubers,GHS,MOFA
Ghana,Upper East,Bolgatanga,,,,Bolga,Yam,11,2013,Wholesale,140.00,100 Tubers,GHS,MOFA
Ghana,Upper East,Bolgatanga,,,,Bolga,Yam,12,2013,Wholesale,182.50,100 Tubers,GHS,MOFA
Ghana,Upper East,Bolgatanga,,,,Bolga,Yam,1,2012,Wholesale,95.00,100 Tubers,GHS,MOFA
Ghana,Upper East,Bolgatanga,,,,Bolga,Yam,2,2012,Wholesale,100.00,100 Tubers,GHS,MOFA
Ghana,Upper East,Bolgatanga,,,,Bolga,Yam,3,2012,Wholesale,95.00,100 Tubers,GHS,MOFA
Ghana,Upper East,Bolgatanga,,,,Bolga,Yam,4,2012,Wholesale,100.00,100 Tubers,GHS,MOFA
Ghana,Upper East,Bolgatanga,,,,Bolga,Yam,5,2012,Wholesale,100.00,100 Tubers,GHS,MOFA
Ghana,Upper East,Bolgatanga,,,,Bolga,Yam,6,2012,Wholesale,144.00,100 Tubers,GHS,MOFA
Ghana,Upper East,Bolgatanga,,,,Bolga,Yam,7,2012,Wholesale,20.00,100 Tubers,GHS,MOFA
Ghana,Upper East,Bolgatanga,,,,Bolga,Yam,8,2012,Wholesale,180.00,100 Tubers,GHS,MOFA
Ghana,Upper East,Bolgatanga,,,,Bolga,Yam,9,2012,Wholesale,125.00,100 Tubers,GHS,MOFA
Ghana,Upper East,Bolgatanga,,,,Bolga,Yam,10,2012,Wholesale,180.00,100 Tubers,GHS,MOFA
Ghana,Upper East,Bolgatanga,,,,Bolga,Yam,11,2012,Wholesale,210.00,100 Tubers,GHS,MOFA
Ghana,Upper East,Bolgatanga,,,,Bolga,Yam,12,2012,Wholesale,176.00,100 Tubers,GHS,MOFA
Ghana,Upper East,Bolgatanga,,,,Bolga,Yam,1,2011,Wholesale,88.33,100 Tubers,GHS,MOFA
Ghana,Upper East,Bolgatanga,,,,Bolga,Yam,2,2011,Wholesale,80.00,100 Tubers,GHS,MOFA
Ghana,Upper East,Bolgatanga,,,,Bolga,Yam,3,2011,Wholesale,100.00,100 Tubers,GHS,MOFA
Ghana,Upper East,Bolgatanga,,,,Bolga,Yam,4,2011,Wholesale,110.00,100 Tubers,GHS,MOFA
Ghana,Upper East,Bolgatanga,,,,Bolga,Yam,5,2011,Wholesale,120.00,100 Tubers,GHS,MOFA
Ghana,Upper East,Bolgatanga,,,,Bolga,Yam,6,2011,Wholesale,120.00,100 Tubers,GHS,MOFA
Ghana,Upper East,Bolgatanga,,,,Bolga,Yam,7,2011,Wholesale,116.67,100 Tubers,GHS,MOFA
Ghana,Upper East,Bolgatanga,,,,Bolga,Yam,8,2011,Wholesale,150.00,100 Tubers,GHS,MOFA
Ghana,Upper East,Bolgatanga,,,,Bolga,Yam,9,2011,Wholesale,110.00,100 Tubers,GHS,MOFA
Ghana,Upper East,Bolgatanga,,,,Bolga,Yam,10,2011,Wholesale,97.50,100 Tubers,GHS,MOFA
Ghana,Upper East,Bolgatanga,,,,Bolga,Yam,11,2011,Wholesale,90.00,100 Tubers,GHS,MOFA
Ghana,Upper East,Bolgatanga,,,,Bolga,Yam,12,2011,Wholesale,92.00,100 Tubers,GHS,MOFA
Ghana,Upper East,Bolgatanga,,,,Bolga,Yam,1,2010,Wholesale,168.00,100 Tubers,GHS,MOFA
Ghana,Upper East,Bolgatanga,,,,Bolga,Yam,2,2010,Wholesale,157.50,100 Tubers,GHS,MOFA
Ghana,Upper East,Bolgatanga,,,,Bolga,Yam,3,2010,Wholesale,162.50,100 Tubers,GHS,MOFA
Ghana,Upper East,Bolgatanga,,,,Bolga,Yam,4,2010,Wholesale,150.00,100 Tubers,GHS,MOFA
Ghana,Upper East,Bolgatanga,,,,Bolga,Yam,5,2010,Wholesale,150.00,100 Tubers,GHS,MOFA
Ghana,Upper East,Bolgatanga,,,,Bolga,Yam,6,2010,Wholesale,157.50,100 Tubers,GHS,MOFA
Ghana,Upper East,Bolgatanga,,,,Bolga,Yam,7,2010,Wholesale,176.00,100 Tubers,GHS,MOFA
Ghana,Upper East,Bolgatanga,,,,Bolga,Yam,8,2010,Wholesale,180.00,100 Tubers,GHS,MOFA
Ghana,Upper East,Bolgatanga,,,,Bolga,Yam,9,2010,Wholesale,102.50,100 Tubers,GHS,MOFA
Ghana,Upper East,Bolgatanga,,,,Bolga,Yam,10,2010,Wholesale,80.00,100 Tubers,GHS,MOFA
Ghana,Upper East,Bolgatanga,,,,Bolga,Yam,11,2010,Wholesale,97.50,100 Tubers,GHS,MOFA
Ghana,Upper East,Bolgatanga,,,,Bolga,Yam,12,2010,Wholesale,,100 Tubers,GHS,MOFA
Ghana,Upper East,Bolgatanga,,,,Bolga,Yam,1,2009,Wholesale,116.00,100 Tubers,GHS,MOFA
Ghana,Upper East,Bolgatanga,,,,Bolga,Yam,2,2009,Wholesale,107.50,100 Tubers,GHS,MOFA
Ghana,Upper East,Bolgatanga,,,,Bolga,Yam,3,2009,Wholesale,122.50,100 Tubers,GHS,MOFA
Ghana,Upper East,Bolgatanga,,,,Bolga,Yam,4,2009,Wholesale,155.00,100 Tubers,GHS,MOFA
Ghana,Upper East,Bolgatanga,,,,Bolga,Yam,5,2009,Wholesale,148.00,100 Tubers,GHS,MOFA
Ghana,Upper East,Bolgatanga,,,,Bolga,Yam,6,2009,Wholesale,145.00,100 Tubers,GHS,MOFA
Ghana,Upper East,Bolgatanga,,,,Bolga,Yam,7,2009,Wholesale,140.00,100 Tubers,GHS,MOFA
Ghana,Upper East,Bolgatanga,,,,Bolga,Yam,8,2009,Wholesale,158.00,100 Tubers,GHS,MOFA
Ghana,Upper East,Bolgatanga,,,,Bolga,Yam,9,2009,Wholesale,190.00,100 Tubers,GHS,MOFA
Ghana,Upper East,Bolgatanga,,,,Bolga,Yam,10,2009,Wholesale,135.00,100 Tubers,GHS,MOFA
Ghana,Upper East,Bolgatanga,,,,Bolga,Yam,11,2009,Wholesale,157.50,100 Tubers,GHS,MOFA
Ghana,Upper East,Bolgatanga,,,,Bolga,Yam,12,2009,Wholesale,157.50,100 Tubers,GHS,MOFA
Ghana,Upper East,Bolgatanga,,,,Bolga,Yam,1,2008,Wholesale,125.00,100 Tubers,GHS,MOFA
Ghana,Upper East,Bolgatanga,,,,Bolga,Yam,2,2008,Wholesale,125.00,100 Tubers,GHS,MOFA
Ghana,Upper East,Bolgatanga,,,,Bolga,Yam,3,2008,Wholesale,130.00,100 Tubers,GHS,MOFA
Ghana,Upper East,Bolgatanga,,,,Bolga,Yam,4,2008,Wholesale,130.00,100 Tubers,GHS,MOFA
Ghana,Upper East,Bolgatanga,,,,Bolga,Yam,5,2008,Wholesale,130.00,100 Tubers,GHS,MOFA
Ghana,Upper East,Bolgatanga,,,,Bolga,Yam,6,2008,Wholesale,130.00,100 Tubers,GHS,MOFA
Ghana,Upper East,Bolgatanga,,,,Bolga,Yam,7,2008,Wholesale,130.67,100 Tubers,GHS,MOFA
Ghana,Upper East,Bolgatanga,,,,Bolga,Yam,8,2008,Wholesale,150.00,100 Tubers,GHS,MOFA
Ghana,Upper East,Bolgatanga,,,,Bolga,Yam,9,2008,Wholesale,115.00,100 Tubers,GHS,MOFA
Ghana,Upper East,Bolgatanga,,,,Bolga,Yam,10,2008,Wholesale,92.50,100 Tubers,GHS,MOFA
Ghana,Upper East,Bolgatanga,,,,Bolga,Yam,11,2008,Wholesale,85.00,100 Tubers,GHS,MOFA
Ghana,Upper East,Bolgatanga,,,,Bolga,Yam,12,2008,Wholesale,106.25,100 Tubers,GHS,MOFA